simulation/qsim/batalha_naval.msim.vcd
$comment
	File created using the following command:
		vcd file batalha_naval.msim.vcd -direction
$end
$date
	Sun Dec 03 21:19:02 2023
$end
$version
	ModelSim Version 2020.1
$end
$timescale
	1ps
$end

$scope module batalha_naval_vlg_vec_tst $end
$var reg 1 ! cpld_clk $end
$var reg 3 " map_select [2:0] $end
$var wire 1 # counter_teste $end
$var wire 1 $ display_colune_activator [3] $end
$var wire 1 % display_colune_activator [2] $end
$var wire 1 & display_colune_activator [1] $end
$var wire 1 ' display_colune_activator [0] $end
$var wire 1 ( display_colune_data [6] $end
$var wire 1 ) display_colune_data [5] $end
$var wire 1 * display_colune_data [4] $end
$var wire 1 + display_colune_data [3] $end
$var wire 1 , display_colune_data [2] $end
$var wire 1 - display_colune_data [1] $end
$var wire 1 . display_colune_data [0] $end
$var wire 1 / final_clk_teste $end
$var wire 1 0 mapteste [34] $end
$var wire 1 1 mapteste [33] $end
$var wire 1 2 mapteste [32] $end
$var wire 1 3 mapteste [31] $end
$var wire 1 4 mapteste [30] $end
$var wire 1 5 mapteste [29] $end
$var wire 1 6 mapteste [28] $end
$var wire 1 7 mapteste [27] $end
$var wire 1 8 mapteste [26] $end
$var wire 1 9 mapteste [25] $end
$var wire 1 : mapteste [24] $end
$var wire 1 ; mapteste [23] $end
$var wire 1 < mapteste [22] $end
$var wire 1 = mapteste [21] $end
$var wire 1 > mapteste [20] $end
$var wire 1 ? mapteste [19] $end
$var wire 1 @ mapteste [18] $end
$var wire 1 A mapteste [17] $end
$var wire 1 B mapteste [16] $end
$var wire 1 C mapteste [15] $end
$var wire 1 D mapteste [14] $end
$var wire 1 E mapteste [13] $end
$var wire 1 F mapteste [12] $end
$var wire 1 G mapteste [11] $end
$var wire 1 H mapteste [10] $end
$var wire 1 I mapteste [9] $end
$var wire 1 J mapteste [8] $end
$var wire 1 K mapteste [7] $end
$var wire 1 L mapteste [6] $end
$var wire 1 M mapteste [5] $end
$var wire 1 N mapteste [4] $end
$var wire 1 O mapteste [3] $end
$var wire 1 P mapteste [2] $end
$var wire 1 Q mapteste [1] $end
$var wire 1 R mapteste [0] $end
$var wire 1 S matriz_colune_activator [4] $end
$var wire 1 T matriz_colune_activator [3] $end
$var wire 1 U matriz_colune_activator [2] $end
$var wire 1 V matriz_colune_activator [1] $end
$var wire 1 W matriz_colune_activator [0] $end
$var wire 1 X matriz_colune_data [6] $end
$var wire 1 Y matriz_colune_data [5] $end
$var wire 1 Z matriz_colune_data [4] $end
$var wire 1 [ matriz_colune_data [3] $end
$var wire 1 \ matriz_colune_data [2] $end
$var wire 1 ] matriz_colune_data [1] $end
$var wire 1 ^ matriz_colune_data [0] $end
$var wire 1 _ teste [10] $end
$var wire 1 ` teste [9] $end
$var wire 1 a teste [8] $end
$var wire 1 b teste [7] $end
$var wire 1 c teste [6] $end
$var wire 1 d teste [5] $end
$var wire 1 e teste [4] $end
$var wire 1 f teste [3] $end
$var wire 1 g teste [2] $end
$var wire 1 h teste [1] $end
$var wire 1 i teste [0] $end

$scope module i1 $end
$var wire 1 j gnd $end
$var wire 1 k vcc $end
$var wire 1 l unknown $end
$var tri1 1 m devclrn $end
$var tri1 1 n devpor $end
$var tri1 1 o devoe $end
$var wire 1 p cpld_clk~combout $end
$var wire 1 q freq_div_1|t_flipflop_0|out~regout $end
$var wire 1 r freq_div_1|t_flipflop_1|out~regout $end
$var wire 1 s freq_div_1|t_flipflop_2|out~regout $end
$var wire 1 t matriz_displayer|counter3bit_1|t_flipflop_1|out~regout $end
$var wire 1 u matriz_displayer|counter3bit_1|t_flipflop_2|out~regout $end
$var wire 1 v matriz_displayer|counter3bit_1|andMod1~0_combout $end
$var wire 1 w matriz_displayer|counter3bit_1|t_flipflop_0|out~regout $end
$var wire 1 x matriz_displayer|mux8x1_1|or1[0]~0_combout $end
$var wire 1 y segment_display|counter3bit_1|t_flipflop_1|out~regout $end
$var wire 1 z segment_display|counter3bit_1|t_flipflop_2|out~regout $end
$var wire 1 { segment_display|counter3bit_1|andMod1~combout $end
$var wire 1 | segment_display|counter3bit_1|t_flipflop_0|out~regout $end
$var wire 1 } segment_display|mux8x1_1|mux4x1_1|and3[1]~0_combout $end
$var wire 1 ~ segment_display|mux8x1_1|mux4x1_1|and3[1]~1_combout $end
$var wire 1 !! segment_display|mux8x1_1|mux4x1_1|and3[1]~2_combout $end
$var wire 1 "! segment_display|mux8x1_1|and1[3]~combout $end
$var wire 1 #! matriz_displayer|register8bit_1|d_flipflop_0|out~regout $end
$var wire 1 $! matriz_displayer|register8bit_1|d_flipflop_1|out~regout $end
$var wire 1 %! matriz_displayer|register8bit_1|d_flipflop_2|out~regout $end
$var wire 1 &! matriz_displayer|register8bit_1|d_flipflop_3|out~regout $end
$var wire 1 '! matriz_displayer|register8bit_1|d_flipflop_4|out~regout $end
$var wire 1 (! segment_display|register8bit_1|d_flipflop_0|out~regout $end
$var wire 1 )! segment_display|register8bit_1|d_flipflop_1|out~regout $end
$var wire 1 *! segment_display|register8bit_1|d_flipflop_2|out~regout $end
$var wire 1 +! segment_display|register8bit_1|d_flipflop_3|out~regout $end
$upscope $end
$upscope $end
$enddefinitions $end
#0
$dumpvars
0!
b111 "
0#
0'
0&
0%
0$
0.
0-
0,
1+
0*
0)
0(
0/
0R
0Q
0P
0O
0N
0M
0L
0K
0J
0I
0H
0G
0F
0E
0D
0C
0B
0A
0@
0?
0>
0=
0<
0;
0:
09
08
07
06
05
04
03
02
01
00
0W
0V
0U
0T
0S
1^
1]
1\
1[
1Z
1Y
1X
0i
0h
0g
0f
0e
0d
0c
0b
0a
0`
0_
0j
1k
xl
1m
1n
1o
0p
0q
0r
0s
0t
0u
0v
0w
1x
0y
0z
0{
0|
0}
0~
0!!
0"!
0#!
0$!
0%!
0&!
0'!
0(!
0)!
0*!
0+!
$end
#5000
1!
1p
#10000
0!
0p
1q
#15000
1!
1p
#20000
0!
0p
0q
1r
#25000
1!
1p
#30000
0!
0p
1q
#35000
1!
1p
#40000
0!
0p
0q
0r
1s
1(!
1#!
1'
1W
#45000
1!
1p
#50000
0!
0p
1q
#55000
1!
1p
#60000
0!
0p
0q
1r
#65000
1!
1p
#70000
0!
0p
1q
#75000
1!
1p
#80000
0!
0p
0q
0r
0s
1|
1w
1"!
1!!
1,
0+
#85000
1!
1p
#90000
0!
0p
1q
#95000
1!
1p
#100000
0!
0p
0q
1r
#105000
1!
1p
#110000
0!
0p
1q
#115000
1!
1p
#120000
0!
0p
0q
0r
1s
1)!
0(!
1$!
0#!
1&
0'
1V
0W
#125000
1!
1p
#130000
0!
0p
1q
#135000
1!
1p
#140000
0!
0p
0q
1r
#145000
1!
1p
#150000
0!
0p
1q
#155000
1!
1p
#160000
0!
0p
0q
0r
0s
0|
0w
0"!
0!!
0,
1+
1t
1y
1"!
1~
1-
0+
#165000
1!
1p
#170000
0!
0p
1q
#175000
1!
1p
#180000
0!
0p
0q
1r
#185000
1!
1p
#190000
0!
0p
1q
#195000
1!
1p
#200000
0!
0p
0q
0r
1s
1*!
0)!
1%!
0$!
1%
0&
1U
0V
#205000
1!
1p
#210000
0!
0p
1q
#215000
1!
1p
#220000
0!
0p
0q
1r
#225000
1!
1p
#230000
0!
0p
1q
#235000
1!
1p
#240000
0!
0p
0q
0r
0s
1|
1w
0~
1}
0-
1.
#245000
1!
1p
#250000
0!
0p
1q
#255000
1!
1p
#260000
0!
0p
0q
1r
#265000
1!
1p
#270000
0!
0p
1q
#275000
1!
1p
#280000
0!
0p
0q
0r
1s
1+!
0*!
1&!
0%!
1$
0%
1T
0U
#285000
1!
1p
#290000
0!
0p
1q
#295000
1!
1p
#300000
0!
0p
0q
1r
#305000
1!
1p
#310000
0!
0p
1q
#315000
1!
1p
#320000
0!
0p
0q
0r
0s
0|
0w
1~
0}
1-
0.
0t
0y
0"!
0~
0-
1+
1z
1u
1"!
0+
#325000
1!
1p
#330000
0!
0p
1q
#335000
1!
1p
#340000
0!
0p
0q
1r
#345000
1!
1p
#350000
0!
0p
1q
#355000
1!
1p
#360000
0!
0p
0q
0r
1s
0+!
1'!
0&!
0$
1S
0T
#365000
1!
1p
#370000
0!
0p
1q
#375000
1!
1p
#380000
0!
0p
0q
1r
#385000
1!
1p
#390000
0!
0p
1q
#395000
1!
1p
#400000
0!
0p
0q
0r
0s
1|
1w
1{
0x
1v
0X
0Y
0Z
0[
0\
0]
0^
0|
0z
0w
0u
0"!
0{
1x
0v
1X
1Y
1Z
1[
1\
1]
1^
1+
#405000
1!
1p
#410000
0!
0p
1q
#415000
1!
1p
#420000
0!
0p
0q
1r
#425000
1!
1p
#430000
0!
0p
1q
#435000
1!
1p
#440000
0!
0p
0q
0r
1s
1(!
0'!
1#!
1'
0S
1W
#445000
1!
1p
#450000
0!
0p
1q
#455000
1!
1p
#460000
0!
0p
0q
1r
#465000
1!
1p
#470000
0!
0p
1q
#475000
1!
1p
#480000
0!
0p
0q
0r
0s
1|
1w
1"!
1!!
1,
0+
#485000
1!
1p
#490000
0!
0p
1q
#495000
1!
1p
#500000
0!
0p
0q
1r
#505000
1!
1p
#510000
0!
0p
1q
#515000
1!
1p
#520000
0!
0p
0q
0r
1s
1)!
0(!
1$!
0#!
1&
0'
1V
0W
#525000
1!
1p
#530000
0!
0p
1q
#535000
1!
1p
#540000
0!
0p
0q
1r
#545000
1!
1p
#550000
0!
0p
1q
#555000
1!
1p
#560000
0!
0p
0q
0r
0s
0|
0w
0"!
0!!
0,
1+
1t
1y
1"!
1~
1-
0+
#565000
1!
1p
#570000
0!
0p
1q
#575000
1!
1p
#580000
0!
0p
0q
1r
#585000
1!
1p
#590000
0!
0p
1q
#595000
1!
1p
#600000
0!
0p
0q
0r
1s
1*!
0)!
1%!
0$!
1%
0&
1U
0V
#605000
1!
1p
#610000
0!
0p
1q
#615000
1!
1p
#620000
0!
0p
0q
1r
#625000
1!
1p
#630000
0!
0p
1q
#635000
1!
1p
#640000
0!
0p
0q
0r
0s
1|
1w
0~
1}
0-
1.
#645000
1!
1p
#650000
0!
0p
1q
#655000
1!
1p
#660000
0!
0p
0q
1r
#665000
1!
1p
#670000
0!
0p
1q
#675000
1!
1p
#680000
0!
0p
0q
0r
1s
1+!
0*!
1&!
0%!
1$
0%
1T
0U
#685000
1!
1p
#690000
0!
0p
1q
#695000
1!
1p
#700000
0!
0p
0q
1r
#705000
1!
1p
#710000
0!
0p
1q
#715000
1!
1p
#720000
0!
0p
0q
0r
0s
0|
0w
1~
0}
1-
0.
0t
0y
0"!
0~
0-
1+
1z
1u
1"!
0+
#725000
1!
1p
#730000
0!
0p
1q
#735000
1!
1p
#740000
0!
0p
0q
1r
#745000
1!
1p
#750000
0!
0p
1q
#755000
1!
1p
#760000
0!
0p
0q
0r
1s
0+!
1'!
0&!
0$
1S
0T
#765000
1!
1p
#770000
0!
0p
1q
#775000
1!
1p
#780000
0!
0p
0q
1r
#785000
1!
1p
#790000
0!
0p
1q
#795000
1!
1p
#800000
0!
0p
0q
0r
0s
1|
1w
1{
0x
1v
0X
0Y
0Z
0[
0\
0]
0^
0|
0z
0w
0u
0"!
0{
1x
0v
1X
1Y
1Z
1[
1\
1]
1^
1+
#805000
1!
1p
#810000
0!
0p
1q
#815000
1!
1p
#820000
0!
0p
0q
1r
#825000
1!
1p
#830000
0!
0p
1q
#835000
1!
1p
#840000
0!
0p
0q
0r
1s
1(!
0'!
1#!
1'
0S
1W
#845000
1!
1p
#850000
0!
0p
1q
#855000
1!
1p
#860000
0!
0p
0q
1r
#865000
1!
1p
#870000
0!
0p
1q
#875000
1!
1p
#880000
0!
0p
0q
0r
0s
1|
1w
1"!
1!!
1,
0+
#885000
1!
1p
#890000
0!
0p
1q
#895000
1!
1p
#900000
0!
0p
0q
1r
#905000
1!
1p
#910000
0!
0p
1q
#915000
1!
1p
#920000
0!
0p
0q
0r
1s
1)!
0(!
1$!
0#!
1&
0'
1V
0W
#925000
1!
1p
#930000
0!
0p
1q
#935000
1!
1p
#940000
0!
0p
0q
1r
#945000
1!
1p
#950000
0!
0p
1q
#955000
1!
1p
#960000
0!
0p
0q
0r
0s
0|
0w
0"!
0!!
0,
1+
1t
1y
1"!
1~
1-
0+
#965000
1!
1p
#970000
0!
0p
1q
#975000
1!
1p
#980000
0!
0p
0q
1r
#985000
1!
1p
#990000
0!
0p
1q
#995000
1!
1p
#1000000
0!
0p
0q
0r
1s
1*!
0)!
1%!
0$!
1%
0&
1U
0V
#1005000
1!
1p
#1010000
0!
0p
1q
#1015000
1!
1p
#1020000
0!
0p
0q
1r
#1025000
1!
1p
#1030000
0!
0p
1q
#1035000
1!
1p
#1040000
0!
0p
0q
0r
0s
1|
1w
0~
1}
0-
1.
#1045000
1!
1p
#1050000
0!
0p
1q
#1055000
1!
1p
#1060000
0!
0p
0q
1r
#1065000
1!
1p
#1070000
0!
0p
1q
#1075000
1!
1p
#1080000
0!
0p
0q
0r
1s
1+!
0*!
1&!
0%!
1$
0%
1T
0U
#1085000
1!
1p
#1090000
0!
0p
1q
#1095000
1!
1p
#1100000
0!
0p
0q
1r
#1105000
1!
1p
#1110000
0!
0p
1q
#1115000
1!
1p
#1120000
0!
0p
0q
0r
0s
0|
0w
1~
0}
1-
0.
0t
0y
0"!
0~
0-
1+
1z
1u
1"!
0+
#1125000
1!
1p
#1130000
0!
0p
1q
#1135000
1!
1p
#1140000
0!
0p
0q
1r
#1145000
1!
1p
#1150000
0!
0p
1q
#1155000
1!
1p
#1160000
0!
0p
0q
0r
1s
0+!
1'!
0&!
0$
1S
0T
#1165000
1!
1p
#1170000
0!
0p
1q
#1175000
1!
1p
#1180000
0!
0p
0q
1r
#1185000
1!
1p
#1190000
0!
0p
1q
#1195000
1!
1p
#1200000
0!
0p
0q
0r
0s
1|
1w
1{
0x
1v
0X
0Y
0Z
0[
0\
0]
0^
0|
0z
0w
0u
0"!
0{
1x
0v
1X
1Y
1Z
1[
1\
1]
1^
1+
#1205000
1!
1p
#1210000
0!
0p
1q
#1215000
1!
1p
#1220000
0!
0p
0q
1r
#1225000
1!
1p
#1230000
0!
0p
1q
#1235000
1!
1p
#1240000
0!
0p
0q
0r
1s
1(!
0'!
1#!
1'
0S
1W
#1245000
1!
1p
#1250000
0!
0p
1q
#1255000
1!
1p
#1260000
0!
0p
0q
1r
#1265000
1!
1p
#1270000
0!
0p
1q
#1275000
1!
1p
#1280000
0!
0p
0q
0r
0s
1|
1w
1"!
1!!
1,
0+
#1285000
1!
1p
#1290000
0!
0p
1q
#1295000
1!
1p
#1300000
0!
0p
0q
1r
#1305000
1!
1p
#1310000
0!
0p
1q
#1315000
1!
1p
#1320000
0!
0p
0q
0r
1s
1)!
0(!
1$!
0#!
1&
0'
1V
0W
#1325000
1!
1p
#1330000
0!
0p
1q
#1335000
1!
1p
#1340000
0!
0p
0q
1r
#1345000
1!
1p
#1350000
0!
0p
1q
#1355000
1!
1p
#1360000
0!
0p
0q
0r
0s
0|
0w
0"!
0!!
0,
1+
1t
1y
1"!
1~
1-
0+
#1365000
1!
1p
#1370000
0!
0p
1q
#1375000
1!
1p
#1380000
0!
0p
0q
1r
#1385000
1!
1p
#1390000
0!
0p
1q
#1395000
1!
1p
#1400000
0!
0p
0q
0r
1s
1*!
0)!
1%!
0$!
1%
0&
1U
0V
#1405000
1!
1p
#1410000
0!
0p
1q
#1415000
1!
1p
#1420000
0!
0p
0q
1r
#1425000
1!
1p
#1430000
0!
0p
1q
#1435000
1!
1p
#1440000
0!
0p
0q
0r
0s
1|
1w
0~
1}
0-
1.
#1445000
1!
1p
#1450000
0!
0p
1q
#1455000
1!
1p
#1460000
0!
0p
0q
1r
#1465000
1!
1p
#1470000
0!
0p
1q
#1475000
1!
1p
#1480000
0!
0p
0q
0r
1s
1+!
0*!
1&!
0%!
1$
0%
1T
0U
#1485000
1!
1p
#1490000
0!
0p
1q
#1495000
1!
1p
#1500000
0!
0p
0q
1r
#1505000
1!
1p
#1510000
0!
0p
1q
#1515000
1!
1p
#1520000
0!
0p
0q
0r
0s
0|
0w
1~
0}
1-
0.
0t
0y
0"!
0~
0-
1+
1z
1u
1"!
0+
#1525000
1!
1p
#1530000
0!
0p
1q
#1535000
1!
1p
#1540000
0!
0p
0q
1r
#1545000
1!
1p
#1550000
0!
0p
1q
#1555000
1!
1p
#1560000
0!
0p
0q
0r
1s
0+!
1'!
0&!
0$
1S
0T
#1565000
1!
1p
#1570000
0!
0p
1q
#1575000
1!
1p
#1580000
0!
0p
0q
1r
#1585000
1!
1p
#1590000
0!
0p
1q
#1595000
1!
1p
#1600000
0!
0p
0q
0r
0s
1|
1w
1{
0x
1v
0X
0Y
0Z
0[
0\
0]
0^
0|
0z
0w
0u
0"!
0{
1x
0v
1X
1Y
1Z
1[
1\
1]
1^
1+
#1605000
1!
1p
#1610000
0!
0p
1q
#1615000
1!
1p
#1620000
0!
0p
0q
1r
#1625000
1!
1p
#1630000
0!
0p
1q
#1635000
1!
1p
#1640000
0!
0p
0q
0r
1s
1(!
0'!
1#!
1'
0S
1W
#1645000
1!
1p
#1650000
0!
0p
1q
#1655000
1!
1p
#1660000
0!
0p
0q
1r
#1665000
1!
1p
#1670000
0!
0p
1q
#1675000
1!
1p
#1680000
0!
0p
0q
0r
0s
1|
1w
1"!
1!!
1,
0+
#1685000
1!
1p
#1690000
0!
0p
1q
#1695000
1!
1p
#1700000
0!
0p
0q
1r
#1705000
1!
1p
#1710000
0!
0p
1q
#1715000
1!
1p
#1720000
0!
0p
0q
0r
1s
1)!
0(!
1$!
0#!
1&
0'
1V
0W
#1725000
1!
1p
#1730000
0!
0p
1q
#1735000
1!
1p
#1740000
0!
0p
0q
1r
#1745000
1!
1p
#1750000
0!
0p
1q
#1755000
1!
1p
#1760000
0!
0p
0q
0r
0s
0|
0w
0"!
0!!
0,
1+
1t
1y
1"!
1~
1-
0+
#1765000
1!
1p
#1770000
0!
0p
1q
#1775000
1!
1p
#1780000
0!
0p
0q
1r
#1785000
1!
1p
#1790000
0!
0p
1q
#1795000
1!
1p
#1800000
0!
0p
0q
0r
1s
1*!
0)!
1%!
0$!
1%
0&
1U
0V
#1805000
1!
1p
#1810000
0!
0p
1q
#1815000
1!
1p
#1820000
0!
0p
0q
1r
#1825000
1!
1p
#1830000
0!
0p
1q
#1835000
1!
1p
#1840000
0!
0p
0q
0r
0s
1|
1w
0~
1}
0-
1.
#1845000
1!
1p
#1850000
0!
0p
1q
#1855000
1!
1p
#1860000
0!
0p
0q
1r
#1865000
1!
1p
#1870000
0!
0p
1q
#1875000
1!
1p
#1880000
0!
0p
0q
0r
1s
1+!
0*!
1&!
0%!
1$
0%
1T
0U
#1885000
1!
1p
#1890000
0!
0p
1q
#1895000
1!
1p
#1900000
0!
0p
0q
1r
#1905000
1!
1p
#1910000
0!
0p
1q
#1915000
1!
1p
#1920000
0!
0p
0q
0r
0s
0|
0w
1~
0}
1-
0.
0t
0y
0"!
0~
0-
1+
1z
1u
1"!
0+
#1925000
1!
1p
#1930000
0!
0p
1q
#1935000
1!
1p
#1940000
0!
0p
0q
1r
#1945000
1!
1p
#1950000
0!
0p
1q
#1955000
1!
1p
#1960000
0!
0p
0q
0r
1s
0+!
1'!
0&!
0$
1S
0T
#1965000
1!
1p
#1970000
0!
0p
1q
#1975000
1!
1p
#1980000
0!
0p
0q
1r
#1985000
1!
1p
#1990000
0!
0p
1q
#1995000
1!
1p
#2000000
0!
0p
0q
0r
0s
1|
1w
1{
0x
1v
0X
0Y
0Z
0[
0\
0]
0^
0|
0z
0w
0u
0"!
0{
1x
0v
1X
1Y
1Z
1[
1\
1]
1^
1+
#2005000
1!
1p
#2010000
0!
0p
1q
#2015000
1!
1p
#2020000
0!
0p
0q
1r
#2025000
1!
1p
#2030000
0!
0p
1q
#2035000
1!
1p
#2040000
0!
0p
0q
0r
1s
1(!
0'!
1#!
1'
0S
1W
#2045000
1!
1p
#2050000
0!
0p
1q
#2055000
1!
1p
#2060000
0!
0p
0q
1r
#2065000
1!
1p
#2070000
0!
0p
1q
#2075000
1!
1p
#2080000
0!
0p
0q
0r
0s
1|
1w
1"!
1!!
1,
0+
#2085000
1!
1p
#2090000
0!
0p
1q
#2095000
1!
1p
#2100000
0!
0p
0q
1r
#2105000
1!
1p
#2110000
0!
0p
1q
#2115000
1!
1p
#2120000
0!
0p
0q
0r
1s
1)!
0(!
1$!
0#!
1&
0'
1V
0W
#2125000
1!
1p
#2130000
0!
0p
1q
#2135000
1!
1p
#2140000
0!
0p
0q
1r
#2145000
1!
1p
#2150000
0!
0p
1q
#2155000
1!
1p
#2160000
0!
0p
0q
0r
0s
0|
0w
0"!
0!!
0,
1+
1t
1y
1"!
1~
1-
0+
#2165000
1!
1p
#2170000
0!
0p
1q
#2175000
1!
1p
#2180000
0!
0p
0q
1r
#2185000
1!
1p
#2190000
0!
0p
1q
#2195000
1!
1p
#2200000
0!
0p
0q
0r
1s
1*!
0)!
1%!
0$!
1%
0&
1U
0V
#2205000
1!
1p
#2210000
0!
0p
1q
#2215000
1!
1p
#2220000
0!
0p
0q
1r
#2225000
1!
1p
#2230000
0!
0p
1q
#2235000
1!
1p
#2240000
0!
0p
0q
0r
0s
1|
1w
0~
1}
0-
1.
#2245000
1!
1p
#2250000
0!
0p
1q
#2255000
1!
1p
#2260000
0!
0p
0q
1r
#2265000
1!
1p
#2270000
0!
0p
1q
#2275000
1!
1p
#2280000
0!
0p
0q
0r
1s
1+!
0*!
1&!
0%!
1$
0%
1T
0U
#2285000
1!
1p
#2290000
0!
0p
1q
#2295000
1!
1p
#2300000
0!
0p
0q
1r
#2305000
1!
1p
#2310000
0!
0p
1q
#2315000
1!
1p
#2320000
0!
0p
0q
0r
0s
0|
0w
1~
0}
1-
0.
0t
0y
0"!
0~
0-
1+
1z
1u
1"!
0+
#2325000
1!
1p
#2330000
0!
0p
1q
#2335000
1!
1p
#2340000
0!
0p
0q
1r
#2345000
1!
1p
#2350000
0!
0p
1q
#2355000
1!
1p
#2360000
0!
0p
0q
0r
1s
0+!
1'!
0&!
0$
1S
0T
#2365000
1!
1p
#2370000
0!
0p
1q
#2375000
1!
1p
#2380000
0!
0p
0q
1r
#2385000
1!
1p
#2390000
0!
0p
1q
#2395000
1!
1p
#2400000
0!
0p
0q
0r
0s
1|
1w
1{
0x
1v
0X
0Y
0Z
0[
0\
0]
0^
0|
0z
0w
0u
0"!
0{
1x
0v
1X
1Y
1Z
1[
1\
1]
1^
1+
#2405000
1!
1p
#2410000
0!
0p
1q
#2415000
1!
1p
#2420000
0!
0p
0q
1r
#2425000
1!
1p
#2430000
0!
0p
1q
#2435000
1!
1p
#2440000
0!
0p
0q
0r
1s
1(!
0'!
1#!
1'
0S
1W
#2445000
1!
1p
#2450000
0!
0p
1q
#2455000
1!
1p
#2460000
0!
0p
0q
1r
#2465000
1!
1p
#2470000
0!
0p
1q
#2475000
1!
1p
#2480000
0!
0p
0q
0r
0s
1|
1w
1"!
1!!
1,
0+
#2485000
1!
1p
#2490000
0!
0p
1q
#2495000
1!
1p
#2500000
0!
0p
0q
1r
#2505000
1!
1p
#2510000
0!
0p
1q
#2515000
1!
1p
#2520000
0!
0p
0q
0r
1s
1)!
0(!
1$!
0#!
1&
0'
1V
0W
#2525000
1!
1p
#2530000
0!
0p
1q
#2535000
1!
1p
#2540000
0!
0p
0q
1r
#2545000
1!
1p
#2550000
0!
0p
1q
#2555000
1!
1p
#2560000
0!
0p
0q
0r
0s
0|
0w
0"!
0!!
0,
1+
1t
1y
1"!
1~
1-
0+
#2565000
1!
1p
#2570000
0!
0p
1q
#2575000
1!
1p
#2580000
0!
0p
0q
1r
#2585000
1!
1p
#2590000
0!
0p
1q
#2595000
1!
1p
#2600000
0!
0p
0q
0r
1s
1*!
0)!
1%!
0$!
1%
0&
1U
0V
#2605000
1!
1p
#2610000
0!
0p
1q
#2615000
1!
1p
#2620000
0!
0p
0q
1r
#2625000
1!
1p
#2630000
0!
0p
1q
#2635000
1!
1p
#2640000
0!
0p
0q
0r
0s
1|
1w
0~
1}
0-
1.
#2645000
1!
1p
#2650000
0!
0p
1q
#2655000
1!
1p
#2660000
0!
0p
0q
1r
#2665000
1!
1p
#2670000
0!
0p
1q
#2675000
1!
1p
#2680000
0!
0p
0q
0r
1s
1+!
0*!
1&!
0%!
1$
0%
1T
0U
#2685000
1!
1p
#2690000
0!
0p
1q
#2695000
1!
1p
#2700000
0!
0p
0q
1r
#2705000
1!
1p
#2710000
0!
0p
1q
#2715000
1!
1p
#2720000
0!
0p
0q
0r
0s
0|
0w
1~
0}
1-
0.
0t
0y
0"!
0~
0-
1+
1z
1u
1"!
0+
#2725000
1!
1p
#2730000
0!
0p
1q
#2735000
1!
1p
#2740000
0!
0p
0q
1r
#2745000
1!
1p
#2750000
0!
0p
1q
#2755000
1!
1p
#2760000
0!
0p
0q
0r
1s
0+!
1'!
0&!
0$
1S
0T
#2765000
1!
1p
#2770000
0!
0p
1q
#2775000
1!
1p
#2780000
0!
0p
0q
1r
#2785000
1!
1p
#2790000
0!
0p
1q
#2795000
1!
1p
#2800000
0!
0p
0q
0r
0s
1|
1w
1{
0x
1v
0X
0Y
0Z
0[
0\
0]
0^
0|
0z
0w
0u
0"!
0{
1x
0v
1X
1Y
1Z
1[
1\
1]
1^
1+
#2805000
1!
1p
#2810000
0!
0p
1q
#2815000
1!
1p
#2820000
0!
0p
0q
1r
#2825000
1!
1p
#2830000
0!
0p
1q
#2835000
1!
1p
#2840000
0!
0p
0q
0r
1s
1(!
0'!
1#!
1'
0S
1W
#2845000
1!
1p
#2850000
0!
0p
1q
#2855000
1!
1p
#2860000
0!
0p
0q
1r
#2865000
1!
1p
#2870000
0!
0p
1q
#2875000
1!
1p
#2880000
0!
0p
0q
0r
0s
1|
1w
1"!
1!!
1,
0+
#2885000
1!
1p
#2890000
0!
0p
1q
#2895000
1!
1p
#2900000
0!
0p
0q
1r
#2905000
1!
1p
#2910000
0!
0p
1q
#2915000
1!
1p
#2920000
0!
0p
0q
0r
1s
1)!
0(!
1$!
0#!
1&
0'
1V
0W
#2925000
1!
1p
#2930000
0!
0p
1q
#2935000
1!
1p
#2940000
0!
0p
0q
1r
#2945000
1!
1p
#2950000
0!
0p
1q
#2955000
1!
1p
#2960000
0!
0p
0q
0r
0s
0|
0w
0"!
0!!
0,
1+
1t
1y
1"!
1~
1-
0+
#2965000
1!
1p
#2970000
0!
0p
1q
#2975000
1!
1p
#2980000
0!
0p
0q
1r
#2985000
1!
1p
#2990000
0!
0p
1q
#2995000
1!
1p
#3000000
0!
0p
0q
0r
1s
1*!
0)!
1%!
0$!
1%
0&
1U
0V
#3005000
1!
1p
#3010000
0!
0p
1q
#3015000
1!
1p
#3020000
0!
0p
0q
1r
#3025000
1!
1p
#3030000
0!
0p
1q
#3035000
1!
1p
#3040000
0!
0p
0q
0r
0s
1|
1w
0~
1}
0-
1.
#3045000
1!
1p
#3050000
0!
0p
1q
#3055000
1!
1p
#3060000
0!
0p
0q
1r
#3065000
1!
1p
#3070000
0!
0p
1q
#3075000
1!
1p
#3080000
0!
0p
0q
0r
1s
1+!
0*!
1&!
0%!
1$
0%
1T
0U
#3085000
1!
1p
#3090000
0!
0p
1q
#3095000
1!
1p
#3100000
0!
0p
0q
1r
#3105000
1!
1p
#3110000
0!
0p
1q
#3115000
1!
1p
#3120000
0!
0p
0q
0r
0s
0|
0w
1~
0}
1-
0.
0t
0y
0"!
0~
0-
1+
1z
1u
1"!
0+
#3125000
1!
1p
#3130000
0!
0p
1q
#3135000
1!
1p
#3140000
0!
0p
0q
1r
#3145000
1!
1p
#3150000
0!
0p
1q
#3155000
1!
1p
#3160000
0!
0p
0q
0r
1s
0+!
1'!
0&!
0$
1S
0T
#3165000
1!
1p
#3170000
0!
0p
1q
#3175000
1!
1p
#3180000
0!
0p
0q
1r
#3185000
1!
1p
#3190000
0!
0p
1q
#3195000
1!
1p
#3200000
0!
0p
0q
0r
0s
1|
1w
1{
0x
1v
0X
0Y
0Z
0[
0\
0]
0^
0|
0z
0w
0u
0"!
0{
1x
0v
1X
1Y
1Z
1[
1\
1]
1^
1+
#3205000
1!
1p
#3210000
0!
0p
1q
#3215000
1!
1p
#3220000
0!
0p
0q
1r
#3225000
1!
1p
#3230000
0!
0p
1q
#3235000
1!
1p
#3240000
0!
0p
0q
0r
1s
1(!
0'!
1#!
1'
0S
1W
#3245000
1!
1p
#3250000
0!
0p
1q
#3255000
1!
1p
#3260000
0!
0p
0q
1r
#3265000
1!
1p
#3270000
0!
0p
1q
#3275000
1!
1p
#3280000
0!
0p
0q
0r
0s
1|
1w
1"!
1!!
1,
0+
#3285000
1!
1p
#3290000
0!
0p
1q
#3295000
1!
1p
#3300000
0!
0p
0q
1r
#3305000
1!
1p
#3310000
0!
0p
1q
#3315000
1!
1p
#3320000
0!
0p
0q
0r
1s
1)!
0(!
1$!
0#!
1&
0'
1V
0W
#3325000
1!
1p
#3330000
0!
0p
1q
#3335000
1!
1p
#3340000
0!
0p
0q
1r
#3345000
1!
1p
#3350000
0!
0p
1q
#3355000
1!
1p
#3360000
0!
0p
0q
0r
0s
0|
0w
0"!
0!!
0,
1+
1t
1y
1"!
1~
1-
0+
#3365000
1!
1p
#3370000
0!
0p
1q
#3375000
1!
1p
#3380000
0!
0p
0q
1r
#3385000
1!
1p
#3390000
0!
0p
1q
#3395000
1!
1p
#3400000
0!
0p
0q
0r
1s
1*!
0)!
1%!
0$!
1%
0&
1U
0V
#3405000
1!
1p
#3410000
0!
0p
1q
#3415000
1!
1p
#3420000
0!
0p
0q
1r
#3425000
1!
1p
#3430000
0!
0p
1q
#3435000
1!
1p
