simulation/qsim/batalha_naval.msim.vcd
$comment
	File created using the following command:
		vcd file batalha_naval.msim.vcd -direction
$end
$date
	Tue Nov 28 22:27:27 2023
$end
$version
	ModelSim Version 2020.1
$end
$timescale
	1ps
$end

$scope module batalha_naval_vlg_vec_tst $end
$var reg 1 ! cpld_clk $end
$var wire 1 " coluna_matriz [4] $end
$var wire 1 # coluna_matriz [3] $end
$var wire 1 $ coluna_matriz [2] $end
$var wire 1 % coluna_matriz [1] $end
$var wire 1 & coluna_matriz [0] $end
$var wire 1 ' final_clk_teste $end
$var wire 1 ( linha_matriz [6] $end
$var wire 1 ) linha_matriz [5] $end
$var wire 1 * linha_matriz [4] $end
$var wire 1 + linha_matriz [3] $end
$var wire 1 , linha_matriz [2] $end
$var wire 1 - linha_matriz [1] $end
$var wire 1 . linha_matriz [0] $end
$var wire 1 / mod5counter_teste $end

$scope module i1 $end
$var wire 1 0 gnd $end
$var wire 1 1 vcc $end
$var wire 1 2 unknown $end
$var tri1 1 3 devclrn $end
$var tri1 1 4 devpor $end
$var tri1 1 5 devoe $end
$var wire 1 6 cpld_clk~combout $end
$var wire 1 7 freq_div_1|t_flipflop_0|out~regout $end
$var wire 1 8 freq_div_1|t_flipflop_1|out~regout $end
$var wire 1 9 freq_div_1|t_flipflop_2|out~regout $end
$var wire 1 : freq_div_1|t_flipflop_3|out~regout $end
$var wire 1 ; freq_div_1|t_flipflop_4|out~regout $end
$var wire 1 < counter3bit_1|t_flipflop_0|out~regout $end
$var wire 1 = counter3bit_1|t_flipflop_1|out~regout $end
$var wire 1 > counter3bit_1|t_flipflop_2|out~regout $end
$var wire 1 ? register7bit_1|d_flipflop_0|out~regout $end
$var wire 1 @ register7bit_1|d_flipflop_1|out~regout $end
$var wire 1 A register7bit_1|d_flipflop_2|out~regout $end
$var wire 1 B register7bit_1|d_flipflop_3|out~regout $end
$var wire 1 C register7bit_1|d_flipflop_4|out~regout $end
$var wire 1 D register7bit_1|d_flipflop_5|out~regout $end
$var wire 1 E register7bit_1|d_flipflop_6|out~regout $end
$var wire 1 F counter3bit_1|and1~0 $end
$upscope $end
$upscope $end
$enddefinitions $end
#0
$dumpvars
0!
0&
0%
0$
0#
0"
0'
0.
0-
0,
0+
0*
0)
0(
0/
00
11
x2
13
14
15
06
07
08
09
0:
0;
0<
0=
0>
0?
0@
0A
0B
0C
0D
0E
0F
$end
#5000
1!
16
17
18
19
1:
1;
1'
1<
1=
1>
1F
1/
#10000
0!
06
#15000
1!
16
07
#20000
0!
06
#25000
1!
16
17
08
#30000
0!
06
#35000
1!
16
07
#40000
0!
06
#45000
1!
16
17
18
09
#50000
0!
06
#55000
1!
16
07
#60000
0!
06
#65000
1!
16
17
08
#70000
0!
06
#75000
1!
16
07
#80000
0!
06
#85000
1!
16
17
18
19
0:
#90000
0!
06
#95000
1!
16
07
#100000
0!
06
#105000
1!
16
17
08
#110000
0!
06
#115000
1!
16
07
#120000
0!
06
#125000
1!
16
17
18
09
#130000
0!
06
#135000
1!
16
07
#140000
0!
06
#145000
1!
16
17
08
#150000
0!
06
#155000
1!
16
07
#160000
0!
06
#165000
1!
16
17
18
19
1:
0;
0'
1?
#170000
0!
06
#175000
1!
16
07
#180000
0!
06
#185000
1!
16
17
08
#190000
0!
06
#195000
1!
16
07
#200000
0!
06
#205000
1!
16
17
18
09
#210000
0!
06
#215000
1!
16
07
#220000
0!
06
#225000
1!
16
17
08
#230000
0!
06
#235000
1!
16
07
#240000
0!
06
#245000
1!
16
17
18
19
0:
#250000
0!
06
#255000
1!
16
07
#260000
0!
06
#265000
1!
16
17
08
#270000
0!
06
#275000
1!
16
07
#280000
0!
06
#285000
1!
16
17
18
09
#290000
0!
06
#295000
1!
16
07
#300000
0!
06
#305000
1!
16
17
08
#310000
0!
06
#315000
1!
16
07
#320000
0!
06
#325000
1!
16
17
18
19
1:
1;
1'
0<
0F
0/
#330000
0!
06
#335000
1!
16
07
#340000
0!
06
#345000
1!
16
17
08
#350000
0!
06
#355000
1!
16
07
#360000
0!
06
#365000
1!
16
17
18
09
#370000
0!
06
#375000
1!
16
07
#380000
0!
06
#385000
1!
16
17
08
#390000
0!
06
#395000
1!
16
07
#400000
0!
06
#405000
1!
16
17
18
19
0:
#410000
0!
06
#415000
1!
16
07
#420000
0!
06
#425000
1!
16
17
08
#430000
0!
06
#435000
1!
16
07
#440000
0!
06
#445000
1!
16
17
18
09
#450000
0!
06
#455000
1!
16
07
#460000
0!
06
#465000
1!
16
17
08
#470000
0!
06
#475000
1!
16
07
#480000
0!
06
#485000
1!
16
17
18
19
1:
0;
0'
1@
0?
#490000
0!
06
#495000
1!
16
07
#500000
0!
06
#505000
1!
16
17
08
#510000
0!
06
#515000
1!
16
07
#520000
0!
06
#525000
1!
16
17
18
09
#530000
0!
06
#535000
1!
16
07
#540000
0!
06
#545000
1!
16
17
08
#550000
0!
06
#555000
1!
16
07
#560000
0!
06
#565000
1!
16
17
18
19
0:
#570000
0!
06
#575000
1!
16
07
#580000
0!
06
#585000
1!
16
17
08
#590000
0!
06
#595000
1!
16
07
#600000
0!
06
#605000
1!
16
17
18
09
#610000
0!
06
#615000
1!
16
07
#620000
0!
06
#625000
1!
16
17
08
#630000
0!
06
#635000
1!
16
07
#640000
0!
06
#645000
1!
16
17
18
19
1:
1;
1'
1<
1F
1/
0=
0F
0/
#650000
0!
06
#655000
1!
16
07
#660000
0!
06
#665000
1!
16
17
08
#670000
0!
06
#675000
1!
16
07
#680000
0!
06
#685000
1!
16
17
18
09
#690000
0!
06
#695000
1!
16
07
#700000
0!
06
#705000
1!
16
17
08
#710000
0!
06
#715000
1!
16
07
#720000
0!
06
#725000
1!
16
17
18
19
0:
#730000
0!
06
#735000
1!
16
07
#740000
0!
06
#745000
1!
16
17
08
#750000
0!
06
#755000
1!
16
07
#760000
0!
06
#765000
1!
16
17
18
09
#770000
0!
06
#775000
1!
16
07
#780000
0!
06
#785000
1!
16
17
08
#790000
0!
06
#795000
1!
16
07
#800000
0!
06
#805000
1!
16
17
18
19
1:
0;
0'
1A
0@
1"
#810000
0!
06
#815000
1!
16
07
#820000
0!
06
#825000
1!
16
17
08
#830000
0!
06
#835000
1!
16
07
#840000
0!
06
#845000
1!
16
17
18
09
#850000
0!
06
#855000
1!
16
07
#860000
0!
06
#865000
1!
16
17
08
#870000
0!
06
#875000
1!
16
07
#880000
0!
06
#885000
1!
16
17
18
19
0:
#890000
0!
06
#895000
1!
16
07
#900000
0!
06
#905000
1!
16
17
08
#910000
0!
06
#915000
1!
16
07
#920000
0!
06
#925000
1!
16
17
18
09
#930000
0!
06
#935000
1!
16
07
#940000
0!
06
#945000
1!
16
17
08
#950000
0!
06
#955000
1!
16
07
#960000
0!
06
#965000
1!
16
17
18
19
1:
1;
1'
0<
#970000
0!
06
#975000
1!
16
07
#980000
0!
06
#985000
1!
16
17
08
#990000
0!
06
#995000
1!
16
07
#1000000
0!
06
#1005000
1!
16
17
18
09
#1010000
0!
06
#1015000
1!
16
07
#1020000
0!
06
#1025000
1!
16
17
08
#1030000
0!
06
#1035000
1!
16
07
#1040000
0!
06
#1045000
1!
16
17
18
19
0:
#1050000
0!
06
#1055000
1!
16
07
#1060000
0!
06
#1065000
1!
16
17
08
#1070000
0!
06
#1075000
1!
16
07
#1080000
0!
06
#1085000
1!
16
17
18
09
#1090000
0!
06
#1095000
1!
16
07
#1100000
0!
06
#1105000
1!
16
17
08
#1110000
0!
06
#1115000
1!
16
07
#1120000
0!
06
#1125000
1!
16
17
18
19
1:
0;
0'
1B
0A
1#
0"
#1130000
0!
06
#1135000
1!
16
07
#1140000
0!
06
#1145000
1!
16
17
08
#1150000
0!
06
#1155000
1!
16
07
#1160000
0!
06
#1165000
1!
16
17
18
09
#1170000
0!
06
#1175000
1!
16
07
#1180000
0!
06
#1185000
1!
16
17
08
#1190000
0!
06
#1195000
1!
16
07
#1200000
0!
06
#1205000
1!
16
17
18
19
0:
#1210000
0!
06
#1215000
1!
16
07
#1220000
0!
06
#1225000
1!
16
17
08
#1230000
0!
06
#1235000
1!
16
07
#1240000
0!
06
#1245000
1!
16
17
18
09
#1250000
0!
06
#1255000
1!
16
07
#1260000
0!
06
#1265000
1!
16
17
08
#1270000
0!
06
#1275000
1!
16
07
#1280000
0!
06
#1285000
1!
16
17
18
19
1:
1;
1'
1<
1=
1F
1/
0>
0F
0/
#1290000
0!
06
#1295000
1!
16
07
#1300000
0!
06
#1305000
1!
16
17
08
#1310000
0!
06
#1315000
1!
16
07
#1320000
0!
06
#1325000
1!
16
17
18
09
#1330000
0!
06
#1335000
1!
16
07
#1340000
0!
06
#1345000
1!
16
17
08
#1350000
0!
06
#1355000
1!
16
07
#1360000
0!
06
#1365000
1!
16
17
18
19
0:
#1370000
0!
06
#1375000
1!
16
07
#1380000
0!
06
#1385000
1!
16
17
08
#1390000
0!
06
#1395000
1!
16
07
#1400000
0!
06
#1405000
1!
16
17
18
09
#1410000
0!
06
#1415000
1!
16
07
#1420000
0!
06
#1425000
1!
16
17
08
#1430000
0!
06
#1435000
1!
16
07
#1440000
0!
06
#1445000
1!
16
17
18
19
1:
0;
0'
1C
0B
1$
0#
#1450000
0!
06
#1455000
1!
16
07
#1460000
0!
06
#1465000
1!
16
17
08
#1470000
0!
06
#1475000
1!
16
07
#1480000
0!
06
#1485000
1!
16
17
18
09
#1490000
0!
06
#1495000
1!
16
07
#1500000
0!
06
#1505000
1!
16
17
08
#1510000
0!
06
#1515000
1!
16
07
#1520000
0!
06
#1525000
1!
16
17
18
19
0:
#1530000
0!
06
#1535000
1!
16
07
#1540000
0!
06
#1545000
1!
16
17
08
#1550000
0!
06
#1555000
1!
16
07
#1560000
0!
06
#1565000
1!
16
17
18
09
#1570000
0!
06
#1575000
1!
16
07
#1580000
0!
06
#1585000
1!
16
17
08
#1590000
0!
06
#1595000
1!
16
07
#1600000
0!
06
#1605000
1!
16
17
18
19
1:
1;
1'
0<
#1610000
0!
06
#1615000
1!
16
07
#1620000
0!
06
#1625000
1!
16
17
08
#1630000
0!
06
#1635000
1!
16
07
#1640000
0!
06
#1645000
1!
16
17
18
09
#1650000
0!
06
#1655000
1!
16
07
#1660000
0!
06
#1665000
1!
16
17
08
#1670000
0!
06
#1675000
1!
16
07
#1680000
0!
06
#1685000
1!
16
17
18
19
0:
#1690000
0!
06
#1695000
1!
16
07
#1700000
0!
06
#1705000
1!
16
17
08
#1710000
0!
06
#1715000
1!
16
07
#1720000
0!
06
#1725000
1!
16
17
18
09
#1730000
0!
06
#1735000
1!
16
07
#1740000
0!
06
#1745000
1!
16
17
08
#1750000
0!
06
#1755000
1!
16
07
#1760000
0!
06
#1765000
1!
16
17
18
19
1:
0;
0'
1D
0C
1%
0$
#1770000
0!
06
#1775000
1!
16
07
#1780000
0!
06
#1785000
1!
16
17
08
#1790000
0!
06
#1795000
1!
16
07
#1800000
0!
06
#1805000
1!
16
17
18
09
#1810000
0!
06
#1815000
1!
16
07
#1820000
0!
06
#1825000
1!
16
17
08
#1830000
0!
06
#1835000
1!
16
07
#1840000
0!
06
#1845000
1!
16
17
18
19
0:
#1850000
0!
06
#1855000
1!
16
07
#1860000
0!
06
#1865000
1!
16
17
08
#1870000
0!
06
#1875000
1!
16
07
#1880000
0!
06
#1885000
1!
16
17
18
09
#1890000
0!
06
#1895000
1!
16
07
#1900000
0!
06
#1905000
1!
16
17
08
#1910000
0!
06
#1915000
1!
16
07
#1920000
0!
06
#1925000
1!
16
17
18
19
1:
1;
1'
1<
0=
#1930000
0!
06
#1935000
1!
16
07
#1940000
0!
06
#1945000
1!
16
17
08
#1950000
0!
06
#1955000
1!
16
07
#1960000
0!
06
#1965000
1!
16
17
18
09
#1970000
0!
06
#1975000
1!
16
07
#1980000
0!
06
#1985000
1!
16
17
08
#1990000
0!
06
#1995000
1!
16
07
#2000000
0!
06
#2005000
1!
16
17
18
19
0:
#2010000
0!
06
#2015000
1!
16
07
#2020000
0!
06
#2025000
1!
16
17
08
#2030000
0!
06
#2035000
1!
16
07
#2040000
0!
06
#2045000
1!
16
17
18
09
#2050000
0!
06
#2055000
1!
16
07
#2060000
0!
06
#2065000
1!
16
17
08
#2070000
0!
06
#2075000
1!
16
07
#2080000
0!
06
#2085000
1!
16
17
18
19
1:
0;
0'
1E
0D
1&
0%
#2090000
0!
06
#2095000
1!
16
07
#2100000
0!
06
#2105000
1!
16
17
08
#2110000
0!
06
#2115000
1!
16
07
#2120000
0!
06
#2125000
1!
16
17
18
09
#2130000
0!
06
#2135000
1!
16
07
#2140000
0!
06
#2145000
1!
16
17
08
#2150000
0!
06
#2155000
1!
16
07
#2160000
0!
06
#2165000
1!
16
17
18
19
0:
#2170000
0!
06
#2175000
1!
16
07
#2180000
0!
06
#2185000
1!
16
17
08
#2190000
0!
06
#2195000
1!
16
07
#2200000
0!
06
#2205000
1!
16
17
18
09
#2210000
0!
06
#2215000
1!
16
07
#2220000
0!
06
#2225000
1!
16
17
08
#2230000
0!
06
#2235000
1!
16
07
#2240000
0!
06
#2245000
1!
16
17
18
19
1:
1;
1'
0<
#2250000
0!
06
#2255000
1!
16
07
#2260000
0!
06
#2265000
1!
16
17
08
#2270000
0!
06
#2275000
1!
16
07
#2280000
0!
06
#2285000
1!
16
17
18
09
#2290000
0!
06
#2295000
1!
16
07
#2300000
0!
06
#2305000
1!
16
17
08
#2310000
0!
06
#2315000
1!
16
07
#2320000
0!
06
#2325000
1!
16
17
18
19
0:
#2330000
0!
06
#2335000
1!
16
07
#2340000
0!
06
#2345000
1!
16
17
08
#2350000
0!
06
#2355000
1!
16
07
#2360000
0!
06
#2365000
1!
16
17
18
09
#2370000
0!
06
#2375000
1!
16
07
#2380000
0!
06
#2385000
1!
16
17
08
#2390000
0!
06
#2395000
1!
16
07
#2400000
0!
06
#2405000
1!
16
17
18
19
1:
0;
0'
0E
0&
#2410000
0!
06
#2415000
1!
16
07
#2420000
0!
06
#2425000
1!
16
17
08
#2430000
0!
06
#2435000
1!
16
07
#2440000
0!
06
#2445000
1!
16
17
18
09
#2450000
0!
06
#2455000
1!
16
07
#2460000
0!
06
#2465000
1!
16
17
08
#2470000
0!
06
#2475000
1!
16
07
#2480000
0!
06
#2485000
1!
16
17
18
19
0:
#2490000
0!
06
#2495000
1!
16
07
#2500000
0!
06
#2505000
1!
16
17
08
#2510000
0!
06
#2515000
1!
16
07
#2520000
0!
06
#2525000
1!
16
17
18
09
#2530000
0!
06
#2535000
1!
16
07
#2540000
0!
06
#2545000
1!
16
17
08
#2550000
0!
06
#2555000
1!
16
07
#2560000
0!
06
#2565000
1!
16
17
18
19
1:
1;
1'
1<
1=
1>
1F
1/
#2570000
0!
06
#2575000
1!
16
07
#2580000
0!
06
#2585000
1!
16
17
08
#2590000
0!
06
#2595000
1!
16
07
#2600000
0!
06
#2605000
1!
16
17
18
09
#2610000
0!
06
#2615000
1!
16
07
#2620000
0!
06
#2625000
1!
16
17
08
#2630000
0!
06
#2635000
1!
16
07
#2640000
0!
06
#2645000
1!
16
17
18
19
0:
#2650000
0!
06
#2655000
1!
16
07
#2660000
0!
06
#2665000
1!
16
17
08
#2670000
0!
06
#2675000
1!
16
07
#2680000
0!
06
#2685000
1!
16
17
18
09
#2690000
0!
06
#2695000
1!
16
07
#2700000
0!
06
#2705000
1!
16
17
08
#2710000
0!
06
#2715000
1!
16
07
#2720000
0!
06
#2725000
1!
16
17
18
19
1:
0;
0'
1?
#2730000
0!
06
#2735000
1!
16
07
#2740000
0!
06
#2745000
1!
16
17
08
#2750000
0!
06
#2755000
1!
16
07
#2760000
0!
06
#2765000
1!
16
17
18
09
#2770000
0!
06
#2775000
1!
16
07
#2780000
0!
06
#2785000
1!
16
17
08
#2790000
0!
06
#2795000
1!
16
07
#2800000
0!
06
#2805000
1!
16
17
18
19
0:
#2810000
0!
06
#2815000
1!
16
07
#2820000
0!
06
#2825000
1!
16
17
08
#2830000
0!
06
#2835000
1!
16
07
#2840000
0!
06
#2845000
1!
16
17
18
09
#2850000
0!
06
#2855000
1!
16
07
#2860000
0!
06
#2865000
1!
16
17
08
#2870000
0!
06
#2875000
1!
16
07
#2880000
0!
06
#2885000
1!
16
17
18
19
1:
1;
1'
0<
0F
0/
#2890000
0!
06
#2895000
1!
16
07
#2900000
0!
06
#2905000
1!
16
17
08
#2910000
0!
06
#2915000
1!
16
07
#2920000
0!
06
#2925000
1!
16
17
18
09
#2930000
0!
06
#2935000
1!
16
07
#2940000
0!
06
#2945000
1!
16
17
08
#2950000
0!
06
#2955000
1!
16
07
#2960000
0!
06
#2965000
1!
16
17
18
19
0:
#2970000
0!
06
#2975000
1!
16
07
#2980000
0!
06
#2985000
1!
16
17
08
#2990000
0!
06
#2995000
1!
16
07
#3000000
0!
06
#3005000
1!
16
17
18
09
#3010000
0!
06
#3015000
1!
16
07
#3020000
0!
06
#3025000
1!
16
17
08
#3030000
0!
06
#3035000
1!
16
07
#3040000
0!
06
#3045000
1!
16
17
18
19
1:
0;
0'
1@
0?
#3050000
0!
06
#3055000
1!
16
07
#3060000
0!
06
#3065000
1!
16
17
08
#3070000
0!
06
#3075000
1!
16
07
#3080000
0!
06
#3085000
1!
16
17
18
09
#3090000
0!
06
#3095000
1!
16
07
#3100000
0!
06
#3105000
1!
16
17
08
#3110000
0!
06
#3115000
1!
16
07
#3120000
0!
06
#3125000
1!
16
17
18
19
0:
#3130000
0!
06
#3135000
1!
16
07
#3140000
0!
06
#3145000
1!
16
17
08
#3150000
0!
06
#3155000
1!
16
07
#3160000
0!
06
#3165000
1!
16
17
18
09
#3170000
0!
06
#3175000
1!
16
07
#3180000
0!
06
#3185000
1!
16
17
08
#3190000
0!
06
#3195000
1!
16
07
#3200000
0!
06
#3205000
1!
16
17
18
19
1:
1;
1'
1<
1F
1/
0=
0F
0/
#3210000
0!
06
#3215000
1!
16
07
#3220000
0!
06
#3225000
1!
16
17
08
#3230000
0!
06
#3235000
1!
16
07
#3240000
0!
06
#3245000
1!
16
17
18
09
#3250000
0!
06
#3255000
1!
16
07
#3260000
0!
06
#3265000
1!
16
17
08
#3270000
0!
06
#3275000
1!
16
07
#3280000
0!
06
#3285000
1!
16
17
18
19
0:
#3290000
0!
06
#3295000
1!
16
07
#3300000
0!
06
#3305000
1!
16
17
08
#3310000
0!
06
#3315000
1!
16
07
#3320000
0!
06
#3325000
1!
16
17
18
09
#3330000
0!
06
#3335000
1!
16
07
#3340000
0!
06
#3345000
1!
16
17
08
#3350000
0!
06
#3355000
1!
16
07
#3360000
0!
06
#3365000
1!
16
17
18
19
1:
0;
0'
1A
0@
1"
#3370000
0!
06
#3375000
1!
16
07
#3380000
0!
06
#3385000
1!
16
17
08
#3390000
0!
06
#3395000
1!
16
07
#3400000
0!
06
#3405000
1!
16
17
18
09
#3410000
0!
06
#3415000
1!
16
07
#3420000
0!
06
#3425000
1!
16
17
08
#3430000
0!
06
#3435000
1!
16
07
#3440000
0!
06
#3445000
1!
16
17
18
19
0:
#3450000
0!
06
#3455000
1!
16
07
#3460000
0!
06
#3465000
1!
16
17
08
#3470000
0!
06
#3475000
1!
16
07
#3480000
0!
06
#3485000
1!
16
17
18
09
#3490000
0!
06
#3495000
1!
16
07
#3500000
0!
06
#3505000
1!
16
17
08
#3510000
0!
06
#3515000
1!
16
07
#3520000
0!
06
#3525000
1!
16
17
18
19
1:
1;
1'
0<
#3530000
0!
06
#3535000
1!
16
07
#3540000
0!
06
#3545000
1!
16
17
08
#3550000
0!
06
#3555000
1!
16
07
#3560000
0!
06
#3565000
1!
16
17
18
09
#3570000
0!
06
#3575000
1!
16
07
#3580000
0!
06
#3585000
1!
16
17
08
#3590000
0!
06
#3595000
1!
16
07
#3600000
0!
06
#3605000
1!
16
17
18
19
0:
#3610000
0!
06
#3615000
1!
16
07
#3620000
0!
06
#3625000
1!
16
17
08
#3630000
0!
06
#3635000
1!
16
07
#3640000
0!
06
#3645000
1!
16
17
18
09
#3650000
0!
06
#3655000
1!
16
07
#3660000
0!
06
#3665000
1!
16
17
08
#3670000
0!
06
#3675000
1!
16
07
#3680000
0!
06
#3685000
1!
16
17
18
19
1:
0;
0'
1B
0A
1#
0"
#3690000
0!
06
#3695000
1!
16
07
#3700000
0!
06
#3705000
1!
16
17
08
#3710000
0!
06
#3715000
1!
16
07
#3720000
0!
06
#3725000
1!
16
17
18
09
#3730000
0!
06
#3735000
1!
16
07
#3740000
0!
06
#3745000
1!
16
17
08
#3750000
0!
06
#3755000
1!
16
07
#3760000
0!
06
#3765000
1!
16
17
18
19
0:
#3770000
0!
06
#3775000
1!
16
07
#3780000
0!
06
#3785000
1!
16
17
08
#3790000
0!
06
#3795000
1!
16
07
#3800000
0!
06
#3805000
1!
16
17
18
09
#3810000
0!
06
#3815000
1!
16
07
#3820000
0!
06
#3825000
1!
16
17
08
#3830000
0!
06
#3835000
1!
16
07
#3840000
0!
06
#3845000
1!
16
17
18
19
1:
1;
1'
1<
1=
1F
1/
0>
0F
0/
#3850000
0!
06
#3855000
1!
16
07
#3860000
0!
06
#3865000
1!
16
17
08
#3870000
0!
06
#3875000
1!
16
07
#3880000
0!
06
#3885000
1!
16
17
18
09
#3890000
0!
06
#3895000
1!
16
07
#3900000
0!
06
#3905000
1!
16
17
08
#3910000
0!
06
#3915000
1!
16
07
#3920000
0!
06
#3925000
1!
16
17
18
19
0:
#3930000
0!
06
#3935000
1!
16
07
#3940000
0!
06
#3945000
1!
16
17
08
#3950000
0!
06
#3955000
1!
16
07
#3960000
0!
06
#3965000
1!
16
17
18
09
#3970000
0!
06
#3975000
1!
16
07
#3980000
0!
06
#3985000
1!
16
17
08
#3990000
0!
06
#3995000
1!
16
07
#4000000
0!
06
#4005000
1!
16
17
18
19
1:
0;
0'
1C
0B
1$
0#
#4010000
0!
06
#4015000
1!
16
07
#4020000
0!
06
#4025000
1!
16
17
08
#4030000
0!
06
#4035000
1!
16
07
#4040000
0!
06
#4045000
1!
16
17
18
09
#4050000
0!
06
#4055000
1!
16
07
#4060000
0!
06
#4065000
1!
16
17
08
#4070000
0!
06
#4075000
1!
16
07
#4080000
0!
06
#4085000
1!
16
17
18
19
0:
#4090000
0!
06
#4095000
1!
16
07
#4100000
0!
06
#4105000
1!
16
17
08
#4110000
0!
06
#4115000
1!
16
07
#4120000
0!
06
#4125000
1!
16
17
18
09
#4130000
0!
06
#4135000
1!
16
07
#4140000
0!
06
#4145000
1!
16
17
08
#4150000
0!
06
#4155000
1!
16
07
#4160000
0!
06
#4165000
1!
16
17
18
19
1:
1;
1'
0<
#4170000
0!
06
#4175000
1!
16
07
#4180000
0!
06
#4185000
1!
16
17
08
#4190000
0!
06
#4195000
1!
16
07
#4200000
0!
06
#4205000
1!
16
17
18
09
#4210000
0!
06
#4215000
1!
16
07
#4220000
0!
06
#4225000
1!
16
17
08
#4230000
0!
06
#4235000
1!
16
07
#4240000
0!
06
#4245000
1!
16
17
18
19
0:
#4250000
0!
06
#4255000
1!
16
07
#4260000
0!
06
#4265000
1!
16
17
08
#4270000
0!
06
#4275000
1!
16
07
#4280000
0!
06
#4285000
1!
16
17
18
09
#4290000
0!
06
#4295000
1!
16
07
#4300000
0!
06
#4305000
1!
16
17
08
#4310000
0!
06
#4315000
1!
16
07
#4320000
0!
06
#4325000
1!
16
17
18
19
1:
0;
0'
1D
0C
1%
0$
#4330000
0!
06
#4335000
1!
16
07
#4340000
0!
06
#4345000
1!
16
17
08
#4350000
0!
06
#4355000
1!
16
07
#4360000
0!
06
#4365000
1!
16
17
18
09
#4370000
0!
06
#4375000
1!
16
07
#4380000
0!
06
#4385000
1!
16
17
08
#4390000
0!
06
#4395000
1!
16
07
#4400000
0!
06
#4405000
1!
16
17
18
19
0:
#4410000
0!
06
#4415000
1!
16
07
#4420000
0!
06
#4425000
1!
16
17
08
#4430000
0!
06
#4435000
1!
16
07
#4440000
0!
06
#4445000
1!
16
17
18
09
#4450000
0!
06
#4455000
1!
16
07
#4460000
0!
06
#4465000
1!
16
17
08
#4470000
0!
06
#4475000
1!
16
07
#4480000
0!
06
#4485000
1!
16
17
18
19
1:
1;
1'
1<
0=
#4490000
0!
06
#4495000
1!
16
07
#4500000
0!
06
#4505000
1!
16
17
08
#4510000
0!
06
#4515000
1!
16
07
#4520000
0!
06
#4525000
1!
16
17
18
09
#4530000
0!
06
#4535000
1!
16
07
#4540000
0!
06
#4545000
1!
16
17
08
#4550000
0!
06
#4555000
1!
16
07
#4560000
0!
06
#4565000
1!
16
17
18
19
0:
#4570000
0!
06
#4575000
1!
16
07
#4580000
0!
06
#4585000
1!
16
17
08
#4590000
0!
06
#4595000
1!
16
07
#4600000
0!
06
#4605000
1!
16
17
18
09
#4610000
0!
06
#4615000
1!
16
07
#4620000
0!
06
#4625000
1!
16
17
08
#4630000
0!
06
#4635000
1!
16
07
#4640000
0!
06
#4645000
1!
16
17
18
19
1:
0;
0'
1E
0D
1&
0%
#4650000
0!
06
#4655000
1!
16
07
#4660000
0!
06
#4665000
1!
16
17
08
#4670000
0!
06
#4675000
1!
16
07
#4680000
0!
06
#4685000
1!
16
17
18
09
#4690000
0!
06
#4695000
1!
16
07
#4700000
0!
06
#4705000
1!
16
17
08
#4710000
0!
06
#4715000
1!
16
07
#4720000
0!
06
#4725000
1!
16
17
18
19
0:
#4730000
0!
06
#4735000
1!
16
07
#4740000
0!
06
#4745000
1!
16
17
08
#4750000
0!
06
#4755000
1!
16
07
#4760000
0!
06
#4765000
1!
16
17
18
09
#4770000
0!
06
#4775000
1!
16
07
#4780000
0!
06
#4785000
1!
16
17
08
#4790000
0!
06
#4795000
1!
16
07
#4800000
0!
06
#4805000
1!
16
17
18
19
1:
1;
1'
0<
#4810000
0!
06
#4815000
1!
16
07
#4820000
0!
06
#4825000
1!
16
17
08
#4830000
0!
06
#4835000
1!
16
07
#4840000
0!
06
#4845000
1!
16
17
18
09
#4850000
0!
06
#4855000
1!
16
07
#4860000
0!
06
#4865000
1!
16
17
08
#4870000
0!
06
#4875000
1!
16
07
#4880000
0!
06
#4885000
1!
16
17
18
19
0:
#4890000
0!
06
#4895000
1!
16
07
#4900000
0!
06
#4905000
1!
16
17
08
#4910000
0!
06
#4915000
1!
16
07
#4920000
0!
06
#4925000
1!
16
17
18
09
#4930000
0!
06
#4935000
1!
16
07
#4940000
0!
06
#4945000
1!
16
17
08
#4950000
0!
06
#4955000
1!
16
07
#4960000
0!
06
#4965000
1!
16
17
18
19
1:
0;
0'
0E
0&
#4970000
0!
06
#4975000
1!
16
07
#4980000
0!
06
#4985000
1!
16
17
08
#4990000
0!
06
#4995000
1!
16
07
#5000000
0!
06
#5005000
1!
16
17
18
09
#5010000
0!
06
#5015000
1!
16
07
#5020000
0!
06
#5025000
1!
16
17
08
#5030000
0!
06
#5035000
1!
16
07
#5040000
0!
06
#5045000
1!
16
17
18
19
0:
#5050000
0!
06
#5055000
1!
16
07
#5060000
0!
06
#5065000
1!
16
17
08
#5070000
0!
06
#5075000
1!
16
07
#5080000
0!
06
#5085000
1!
16
17
18
09
#5090000
0!
06
#5095000
1!
16
07
#5100000
0!
06
#5105000
1!
16
17
08
#5110000
0!
06
#5115000
1!
16
07
#5120000
0!
06
#5125000
1!
16
17
18
19
1:
1;
1'
1<
1=
1>
1F
1/
#5130000
0!
06
#5135000
1!
16
07
#5140000
0!
06
#5145000
1!
16
17
08
#5150000
0!
06
#5155000
1!
16
07
#5160000
0!
06
#5165000
1!
16
17
18
09
#5170000
0!
06
#5175000
1!
16
07
#5180000
0!
06
#5185000
1!
16
17
08
#5190000
0!
06
#5195000
1!
16
07
#5200000
0!
06
#5205000
1!
16
17
18
19
0:
#5210000
0!
06
#5215000
1!
16
07
#5220000
0!
06
#5225000
1!
16
17
08
#5230000
0!
06
#5235000
1!
16
07
#5240000
0!
06
#5245000
1!
16
17
18
09
#5250000
0!
06
#5255000
1!
16
07
#5260000
0!
06
#5265000
1!
16
17
08
#5270000
0!
06
#5275000
1!
16
07
#5280000
0!
06
#5285000
1!
16
17
18
19
1:
0;
0'
1?
#5290000
0!
06
#5295000
1!
16
07
#5300000
0!
06
#5305000
1!
16
17
08
#5310000
0!
06
#5315000
1!
16
07
#5320000
0!
06
#5325000
1!
16
17
18
09
#5330000
0!
06
#5335000
1!
16
07
#5340000
0!
06
#5345000
1!
16
17
08
#5350000
0!
06
#5355000
1!
16
07
#5360000
0!
06
#5365000
1!
16
17
18
19
0:
#5370000
0!
06
#5375000
1!
16
07
#5380000
0!
06
#5385000
1!
16
17
08
#5390000
0!
06
#5395000
1!
16
07
#5400000
0!
06
#5405000
1!
16
17
18
09
#5410000
0!
06
#5415000
1!
16
07
#5420000
0!
06
#5425000
1!
16
17
08
#5430000
0!
06
#5435000
1!
16
07
#5440000
0!
06
#5445000
1!
16
17
18
19
1:
1;
1'
0<
0F
0/
#5450000
0!
06
#5455000
1!
16
07
#5460000
0!
06
#5465000
1!
16
17
08
#5470000
0!
06
#5475000
1!
16
07
#5480000
0!
06
#5485000
1!
16
17
18
09
#5490000
0!
06
#5495000
1!
16
07
#5500000
0!
06
#5505000
1!
16
17
08
#5510000
0!
06
#5515000
1!
16
07
#5520000
0!
06
#5525000
1!
16
17
18
19
0:
#5530000
0!
06
#5535000
1!
16
07
#5540000
0!
06
#5545000
1!
16
17
08
#5550000
0!
06
#5555000
1!
16
07
#5560000
0!
06
#5565000
1!
16
17
18
09
#5570000
0!
06
#5575000
1!
16
07
#5580000
0!
06
#5585000
1!
16
17
08
#5590000
0!
06
#5595000
1!
16
07
#5600000
0!
06
#5605000
1!
16
17
18
19
1:
0;
0'
1@
0?
#5610000
0!
06
#5615000
1!
16
07
#5620000
0!
06
#5625000
1!
16
17
08
