simulation/qsim/batalha_naval.msim.vcd
$comment
	File created using the following command:
		vcd file batalha_naval.msim.vcd -direction
$end
$date
	Sun Dec 03 12:39:26 2023
$end
$version
	ModelSim Version 2020.1
$end
$timescale
	1ps
$end

$scope module batalha_naval_vlg_vec_tst $end
$var reg 1 ! cpld_clk $end
$var wire 1 " counter_teste $end
$var wire 1 # display_colune_activator [3] $end
$var wire 1 $ display_colune_activator [2] $end
$var wire 1 % display_colune_activator [1] $end
$var wire 1 & display_colune_activator [0] $end
$var wire 1 ' display_colune_data [6] $end
$var wire 1 ( display_colune_data [5] $end
$var wire 1 ) display_colune_data [4] $end
$var wire 1 * display_colune_data [3] $end
$var wire 1 + display_colune_data [2] $end
$var wire 1 , display_colune_data [1] $end
$var wire 1 - display_colune_data [0] $end
$var wire 1 . final_clk_teste $end
$var wire 1 / mapteste [34] $end
$var wire 1 0 mapteste [33] $end
$var wire 1 1 mapteste [32] $end
$var wire 1 2 mapteste [31] $end
$var wire 1 3 mapteste [30] $end
$var wire 1 4 mapteste [29] $end
$var wire 1 5 mapteste [28] $end
$var wire 1 6 mapteste [27] $end
$var wire 1 7 mapteste [26] $end
$var wire 1 8 mapteste [25] $end
$var wire 1 9 mapteste [24] $end
$var wire 1 : mapteste [23] $end
$var wire 1 ; mapteste [22] $end
$var wire 1 < mapteste [21] $end
$var wire 1 = mapteste [20] $end
$var wire 1 > mapteste [19] $end
$var wire 1 ? mapteste [18] $end
$var wire 1 @ mapteste [17] $end
$var wire 1 A mapteste [16] $end
$var wire 1 B mapteste [15] $end
$var wire 1 C mapteste [14] $end
$var wire 1 D mapteste [13] $end
$var wire 1 E mapteste [12] $end
$var wire 1 F mapteste [11] $end
$var wire 1 G mapteste [10] $end
$var wire 1 H mapteste [9] $end
$var wire 1 I mapteste [8] $end
$var wire 1 J mapteste [7] $end
$var wire 1 K mapteste [6] $end
$var wire 1 L mapteste [5] $end
$var wire 1 M mapteste [4] $end
$var wire 1 N mapteste [3] $end
$var wire 1 O mapteste [2] $end
$var wire 1 P mapteste [1] $end
$var wire 1 Q mapteste [0] $end
$var wire 1 R matriz_colune_activator [4] $end
$var wire 1 S matriz_colune_activator [3] $end
$var wire 1 T matriz_colune_activator [2] $end
$var wire 1 U matriz_colune_activator [1] $end
$var wire 1 V matriz_colune_activator [0] $end
$var wire 1 W matriz_colune_data [6] $end
$var wire 1 X matriz_colune_data [5] $end
$var wire 1 Y matriz_colune_data [4] $end
$var wire 1 Z matriz_colune_data [3] $end
$var wire 1 [ matriz_colune_data [2] $end
$var wire 1 \ matriz_colune_data [1] $end
$var wire 1 ] matriz_colune_data [0] $end
$var wire 1 ^ teste [10] $end
$var wire 1 _ teste [9] $end
$var wire 1 ` teste [8] $end
$var wire 1 a teste [7] $end
$var wire 1 b teste [6] $end
$var wire 1 c teste [5] $end
$var wire 1 d teste [4] $end
$var wire 1 e teste [3] $end
$var wire 1 f teste [2] $end
$var wire 1 g teste [1] $end
$var wire 1 h teste [0] $end

$scope module i1 $end
$var wire 1 i gnd $end
$var wire 1 j vcc $end
$var wire 1 k unknown $end
$var tri1 1 l devclrn $end
$var tri1 1 m devpor $end
$var tri1 1 n devoe $end
$var wire 1 o cpld_clk~combout $end
$var wire 1 p freq_div_1|t_flipflop_0|out~regout $end
$var wire 1 q freq_div_1|t_flipflop_1|out~regout $end
$var wire 1 r freq_div_1|t_flipflop_2|out~regout $end
$var wire 1 s matriz_displayer|counter3bit_1|andMod1~combout $end
$var wire 1 t matriz_displayer|counter3bit_1|t_flipflop_0|out~regout $end
$var wire 1 u matriz_displayer|counter3bit_1|t_flipflop_1|out~regout $end
$var wire 1 v matriz_displayer|counter3bit_1|t_flipflop_2|out~regout $end
$var wire 1 w matriz_displayer|mux8x1_1|and2[0]~0_combout $end
$var wire 1 x matriz_displayer|mux8x1_1|mux4x1_1|and3[2]~0_combout $end
$var wire 1 y matriz_displayer|mux8x1_1|mux4x1_1|and3[2]~1_combout $end
$var wire 1 z matriz_displayer|mux8x1_1|mux4x1_1|and3[2]~2_combout $end
$var wire 1 { matriz_displayer|mux8x1_1|and1[4]~combout $end
$var wire 1 | segment_display|counter3bit_1|t_flipflop_1|out~regout $end
$var wire 1 } segment_display|counter3bit_1|t_flipflop_2|out~regout $end
$var wire 1 ~ segment_display|counter3bit_1|andMod1~combout $end
$var wire 1 !! segment_display|counter3bit_1|t_flipflop_0|out~regout $end
$var wire 1 "! segment_display|mux8x1_1|mux4x1_1|and3[1]~0_combout $end
$var wire 1 #! segment_display|mux8x1_1|mux4x1_1|and3[1]~1_combout $end
$var wire 1 $! segment_display|mux8x1_1|mux4x1_1|and3[1]~2_combout $end
$var wire 1 %! segment_display|mux8x1_1|and1[3]~combout $end
$var wire 1 &! matriz_displayer|register8bit_1|d_flipflop_0|out~regout $end
$var wire 1 '! matriz_displayer|register8bit_1|d_flipflop_1|out~regout $end
$var wire 1 (! matriz_displayer|register8bit_1|d_flipflop_2|out~regout $end
$var wire 1 )! matriz_displayer|register8bit_1|d_flipflop_3|out~regout $end
$var wire 1 *! matriz_displayer|register8bit_1|d_flipflop_4|out~regout $end
$var wire 1 +! segment_display|register8bit_1|d_flipflop_0|out~regout $end
$var wire 1 ,! segment_display|register8bit_1|d_flipflop_1|out~regout $end
$var wire 1 -! segment_display|register8bit_1|d_flipflop_2|out~regout $end
$var wire 1 .! segment_display|register8bit_1|d_flipflop_3|out~regout $end
$upscope $end
$upscope $end
$enddefinitions $end
#0
$dumpvars
0!
0"
0&
0%
0$
0#
0-
0,
0+
1*
0)
0(
0'
0.
0Q
0P
0O
0N
0M
0L
0K
0J
0I
0H
0G
0F
0E
0D
0C
0B
0A
0@
0?
0>
0=
0<
0;
0:
09
08
07
06
05
04
03
02
01
00
0/
0V
0U
0T
0S
0R
0]
0\
0[
0Z
1Y
0X
0W
0h
0g
0f
0e
0d
0c
0b
0a
0`
0_
0^
0i
1j
xk
1l
1m
1n
0o
0p
0q
0r
0s
0t
0u
0v
0w
0x
0y
0z
0{
0|
0}
0~
0!!
0"!
0#!
0$!
0%!
0&!
0'!
0(!
0)!
0*!
0+!
0,!
0-!
0.!
$end
#5000
1!
1o
#10000
0!
0o
1p
#15000
1!
1o
#20000
0!
0o
0p
1q
#25000
1!
1o
#30000
0!
0o
1p
#35000
1!
1o
#40000
0!
0o
0p
0q
1r
1+!
1&!
1&
1V
#45000
1!
1o
#50000
0!
0o
1p
#55000
1!
1o
#60000
0!
0o
0p
1q
#65000
1!
1o
#70000
0!
0o
1p
#75000
1!
1o
#80000
0!
0o
0p
0q
0r
1!!
1t
1%!
1$!
1{
1z
1+
1Z
0Y
0*
#85000
1!
1o
#90000
0!
0o
1p
#95000
1!
1o
#100000
0!
0o
0p
1q
#105000
1!
1o
#110000
0!
0o
1p
#115000
1!
1o
#120000
0!
0o
0p
0q
1r
1,!
0+!
1'!
0&!
1%
0&
1U
0V
#125000
1!
1o
#130000
0!
0o
1p
#135000
1!
1o
#140000
0!
0o
0p
1q
#145000
1!
1o
#150000
0!
0o
1p
#155000
1!
1o
#160000
0!
0o
0p
0q
0r
0!!
0t
0%!
0$!
0{
0z
0+
0Z
1Y
1*
1u
1|
1{
1y
1%!
1#!
1[
1,
0*
0Y
#165000
1!
1o
#170000
0!
0o
1p
#175000
1!
1o
#180000
0!
0o
0p
1q
#185000
1!
1o
#190000
0!
0o
1p
#195000
1!
1o
#200000
0!
0o
0p
0q
1r
1-!
0,!
1(!
0'!
1$
0%
1T
0U
#205000
1!
1o
#210000
0!
0o
1p
#215000
1!
1o
#220000
0!
0o
0p
1q
#225000
1!
1o
#230000
0!
0o
1p
#235000
1!
1o
#240000
0!
0o
0p
0q
0r
1!!
1t
0#!
1"!
0y
1x
0,
1-
0[
1\
#245000
1!
1o
#250000
0!
0o
1p
#255000
1!
1o
#260000
0!
0o
0p
1q
#265000
1!
1o
#270000
0!
0o
1p
#275000
1!
1o
#280000
0!
0o
0p
0q
1r
1.!
0-!
1)!
0(!
1#
0$
1S
0T
#285000
1!
1o
#290000
0!
0o
1p
#295000
1!
1o
#300000
0!
0o
0p
1q
#305000
1!
1o
#310000
0!
0o
1p
#315000
1!
1o
#320000
0!
0o
0p
0q
0r
0!!
0t
1#!
0"!
1y
0x
1,
0-
1[
0\
0u
0|
0{
0y
0%!
0#!
0[
0,
1*
1Y
1}
1v
1%!
1{
1w
1]
0Y
0*
#325000
1!
1o
#330000
0!
0o
1p
#335000
1!
1o
#340000
0!
0o
0p
1q
#345000
1!
1o
#350000
0!
0o
1p
#355000
1!
1o
#360000
0!
0o
0p
0q
1r
0.!
1*!
0)!
0#
1R
0S
#365000
1!
1o
#370000
0!
0o
1p
#375000
1!
1o
#380000
0!
0o
0p
1q
#385000
1!
1o
#390000
0!
0o
1p
#395000
1!
1o
#400000
0!
0o
0p
0q
0r
1!!
1t
1~
0w
1s
0]
0!!
0}
0v
0t
0%!
0~
0{
0s
1Y
1*
#405000
1!
1o
#410000
0!
0o
1p
#415000
1!
1o
#420000
0!
0o
0p
1q
#425000
1!
1o
#430000
0!
0o
1p
#435000
1!
1o
#440000
0!
0o
0p
0q
1r
1+!
0*!
1&!
1&
0R
1V
#445000
1!
1o
#450000
0!
0o
1p
#455000
1!
1o
#460000
0!
0o
0p
1q
#465000
1!
1o
#470000
0!
0o
1p
#475000
1!
1o
#480000
0!
0o
0p
0q
0r
1!!
1t
1%!
1$!
1{
1z
1+
1Z
0Y
0*
#485000
1!
1o
#490000
0!
0o
1p
#495000
1!
1o
#500000
0!
0o
0p
1q
#505000
1!
1o
#510000
0!
0o
1p
#515000
1!
1o
#520000
0!
0o
0p
0q
1r
1,!
0+!
1'!
0&!
1%
0&
1U
0V
#525000
1!
1o
#530000
0!
0o
1p
#535000
1!
1o
#540000
0!
0o
0p
1q
#545000
1!
1o
#550000
0!
0o
1p
#555000
1!
1o
#560000
0!
0o
0p
0q
0r
0!!
0t
0%!
0$!
0{
0z
0+
0Z
1Y
1*
1u
1|
1{
1y
1%!
1#!
1[
1,
0*
0Y
#565000
1!
1o
#570000
0!
0o
1p
#575000
1!
1o
#580000
0!
0o
0p
1q
#585000
1!
1o
#590000
0!
0o
1p
#595000
1!
1o
#600000
0!
0o
0p
0q
1r
1-!
0,!
1(!
0'!
1$
0%
1T
0U
#605000
1!
1o
#610000
0!
0o
1p
#615000
1!
1o
#620000
0!
0o
0p
1q
#625000
1!
1o
#630000
0!
0o
1p
#635000
1!
1o
#640000
0!
0o
0p
0q
0r
1!!
1t
0#!
1"!
0y
1x
0,
1-
0[
1\
#645000
1!
1o
#650000
0!
0o
1p
#655000
1!
1o
#660000
0!
0o
0p
1q
#665000
1!
1o
#670000
0!
0o
1p
#675000
1!
1o
#680000
0!
0o
0p
0q
1r
1.!
0-!
1)!
0(!
1#
0$
1S
0T
#685000
1!
1o
#690000
0!
0o
1p
#695000
1!
1o
#700000
0!
0o
0p
1q
#705000
1!
1o
#710000
0!
0o
1p
#715000
1!
1o
#720000
0!
0o
0p
0q
0r
0!!
0t
1#!
0"!
1y
0x
1,
0-
1[
0\
0u
0|
0{
0y
0%!
0#!
0[
0,
1*
1Y
1}
1v
1%!
1{
1w
1]
0Y
0*
#725000
1!
1o
#730000
0!
0o
1p
#735000
1!
1o
#740000
0!
0o
0p
1q
#745000
1!
1o
#750000
0!
0o
1p
#755000
1!
1o
#760000
0!
0o
0p
0q
1r
0.!
1*!
0)!
0#
1R
0S
#765000
1!
1o
#770000
0!
0o
1p
#775000
1!
1o
#780000
0!
0o
0p
1q
#785000
1!
1o
#790000
0!
0o
1p
#795000
1!
1o
#800000
0!
0o
0p
0q
0r
1!!
1t
1~
0w
1s
0]
0!!
0}
0v
0t
0%!
0~
0{
0s
1Y
1*
#805000
1!
1o
#810000
0!
0o
1p
#815000
1!
1o
#820000
0!
0o
0p
1q
#825000
1!
1o
#830000
0!
0o
1p
#835000
1!
1o
#840000
0!
0o
0p
0q
1r
1+!
0*!
1&!
1&
0R
1V
#845000
1!
1o
#850000
0!
0o
1p
#855000
1!
1o
#860000
0!
0o
0p
1q
#865000
1!
1o
#870000
0!
0o
1p
#875000
1!
1o
#880000
0!
0o
0p
0q
0r
1!!
1t
1%!
1$!
1{
1z
1+
1Z
0Y
0*
#885000
1!
1o
#890000
0!
0o
1p
#895000
1!
1o
#900000
0!
0o
0p
1q
#905000
1!
1o
#910000
0!
0o
1p
#915000
1!
1o
#920000
0!
0o
0p
0q
1r
1,!
0+!
1'!
0&!
1%
0&
1U
0V
#925000
1!
1o
#930000
0!
0o
1p
#935000
1!
1o
#940000
0!
0o
0p
1q
#945000
1!
1o
#950000
0!
0o
1p
#955000
1!
1o
#960000
0!
0o
0p
0q
0r
0!!
0t
0%!
0$!
0{
0z
0+
0Z
1Y
1*
1u
1|
1{
1y
1%!
1#!
1[
1,
0*
0Y
#965000
1!
1o
#970000
0!
0o
1p
#975000
1!
1o
#980000
0!
0o
0p
1q
#985000
1!
1o
#990000
0!
0o
1p
#995000
1!
1o
#1000000
0!
0o
0p
0q
1r
1-!
0,!
1(!
0'!
1$
0%
1T
0U
#1005000
1!
1o
#1010000
0!
0o
1p
#1015000
1!
1o
#1020000
0!
0o
0p
1q
#1025000
1!
1o
#1030000
0!
0o
1p
#1035000
1!
1o
#1040000
0!
0o
0p
0q
0r
1!!
1t
0#!
1"!
0y
1x
0,
1-
0[
1\
#1045000
1!
1o
#1050000
0!
0o
1p
#1055000
1!
1o
#1060000
0!
0o
0p
1q
#1065000
1!
1o
#1070000
0!
0o
1p
#1075000
1!
1o
#1080000
0!
0o
0p
0q
1r
1.!
0-!
1)!
0(!
1#
0$
1S
0T
#1085000
1!
1o
#1090000
0!
0o
1p
#1095000
1!
1o
#1100000
0!
0o
0p
1q
#1105000
1!
1o
#1110000
0!
0o
1p
#1115000
1!
1o
#1120000
0!
0o
0p
0q
0r
0!!
0t
1#!
0"!
1y
0x
1,
0-
1[
0\
0u
0|
0{
0y
0%!
0#!
0[
0,
1*
1Y
1}
1v
1%!
1{
1w
1]
0Y
0*
#1125000
1!
1o
#1130000
0!
0o
1p
#1135000
1!
1o
#1140000
0!
0o
0p
1q
#1145000
1!
1o
#1150000
0!
0o
1p
#1155000
1!
1o
#1160000
0!
0o
0p
0q
1r
0.!
1*!
0)!
0#
1R
0S
#1165000
1!
1o
#1170000
0!
0o
1p
#1175000
1!
1o
#1180000
0!
0o
0p
1q
#1185000
1!
1o
#1190000
0!
0o
1p
#1195000
1!
1o
#1200000
0!
0o
0p
0q
0r
1!!
1t
1~
0w
1s
0]
0!!
0}
0v
0t
0%!
0~
0{
0s
1Y
1*
#1205000
1!
1o
#1210000
0!
0o
1p
#1215000
1!
1o
#1220000
0!
0o
0p
1q
#1225000
1!
1o
#1230000
0!
0o
1p
#1235000
1!
1o
#1240000
0!
0o
0p
0q
1r
1+!
0*!
1&!
1&
0R
1V
#1245000
1!
1o
#1250000
0!
0o
1p
#1255000
1!
1o
#1260000
0!
0o
0p
1q
#1265000
1!
1o
#1270000
0!
0o
1p
#1275000
1!
1o
#1280000
0!
0o
0p
0q
0r
1!!
1t
1%!
1$!
1{
1z
1+
1Z
0Y
0*
#1285000
1!
1o
#1290000
0!
0o
1p
#1295000
1!
1o
#1300000
0!
0o
0p
1q
#1305000
1!
1o
#1310000
0!
0o
1p
#1315000
1!
1o
#1320000
0!
0o
0p
0q
1r
1,!
0+!
1'!
0&!
1%
0&
1U
0V
#1325000
1!
1o
#1330000
0!
0o
1p
#1335000
1!
1o
#1340000
0!
0o
0p
1q
#1345000
1!
1o
#1350000
0!
0o
1p
#1355000
1!
1o
#1360000
0!
0o
0p
0q
0r
0!!
0t
0%!
0$!
0{
0z
0+
0Z
1Y
1*
1u
1|
1{
1y
1%!
1#!
1[
1,
0*
0Y
#1365000
1!
1o
#1370000
0!
0o
1p
#1375000
1!
1o
#1380000
0!
0o
0p
1q
#1385000
1!
1o
#1390000
0!
0o
1p
#1395000
1!
1o
#1400000
0!
0o
0p
0q
1r
1-!
0,!
1(!
0'!
1$
0%
1T
0U
#1405000
1!
1o
#1410000
0!
0o
1p
#1415000
1!
1o
#1420000
0!
0o
0p
1q
#1425000
1!
1o
#1430000
0!
0o
1p
#1435000
1!
1o
#1440000
0!
0o
0p
0q
0r
1!!
1t
0#!
1"!
0y
1x
0,
1-
0[
1\
#1445000
1!
1o
#1450000
0!
0o
1p
#1455000
1!
1o
#1460000
0!
0o
0p
1q
#1465000
1!
1o
#1470000
0!
0o
1p
#1475000
1!
1o
#1480000
0!
0o
0p
0q
1r
1.!
0-!
1)!
0(!
1#
0$
1S
0T
#1485000
1!
1o
#1490000
0!
0o
1p
#1495000
1!
1o
#1500000
0!
0o
0p
1q
#1505000
1!
1o
#1510000
0!
0o
1p
#1515000
1!
1o
#1520000
0!
0o
0p
0q
0r
0!!
0t
1#!
0"!
1y
0x
1,
0-
1[
0\
0u
0|
0{
0y
0%!
0#!
0[
0,
1*
1Y
1}
1v
1%!
1{
1w
1]
0Y
0*
#1525000
1!
1o
#1530000
0!
0o
1p
#1535000
1!
1o
#1540000
0!
0o
0p
1q
#1545000
1!
1o
#1550000
0!
0o
1p
#1555000
1!
1o
#1560000
0!
0o
0p
0q
1r
0.!
1*!
0)!
0#
1R
0S
#1565000
1!
1o
#1570000
0!
0o
1p
#1575000
1!
1o
#1580000
0!
0o
0p
1q
#1585000
1!
1o
#1590000
0!
0o
1p
#1595000
1!
1o
#1600000
0!
0o
0p
0q
0r
1!!
1t
1~
0w
1s
0]
0!!
0}
0v
0t
0%!
0~
0{
0s
1Y
1*
#1605000
1!
1o
#1610000
0!
0o
1p
#1615000
1!
1o
#1620000
0!
0o
0p
1q
#1625000
1!
1o
#1630000
0!
0o
1p
#1635000
1!
1o
#1640000
0!
0o
0p
0q
1r
1+!
0*!
1&!
1&
0R
1V
#1645000
1!
1o
#1650000
0!
0o
1p
#1655000
1!
1o
#1660000
0!
0o
0p
1q
#1665000
1!
1o
#1670000
0!
0o
1p
#1675000
1!
1o
#1680000
0!
0o
0p
0q
0r
1!!
1t
1%!
1$!
1{
1z
1+
1Z
0Y
0*
#1685000
1!
1o
#1690000
0!
0o
1p
#1695000
1!
1o
#1700000
0!
0o
0p
1q
#1705000
1!
1o
#1710000
0!
0o
1p
#1715000
1!
1o
#1720000
0!
0o
0p
0q
1r
1,!
0+!
1'!
0&!
1%
0&
1U
0V
#1725000
1!
1o
#1730000
0!
0o
1p
#1735000
1!
1o
#1740000
0!
0o
0p
1q
#1745000
1!
1o
#1750000
0!
0o
1p
#1755000
1!
1o
#1760000
0!
0o
0p
0q
0r
0!!
0t
0%!
0$!
0{
0z
0+
0Z
1Y
1*
1u
1|
1{
1y
1%!
1#!
1[
1,
0*
0Y
#1765000
1!
1o
#1770000
0!
0o
1p
#1775000
1!
1o
#1780000
0!
0o
0p
1q
#1785000
1!
1o
#1790000
0!
0o
1p
#1795000
1!
1o
#1800000
0!
0o
0p
0q
1r
1-!
0,!
1(!
0'!
1$
0%
1T
0U
#1805000
1!
1o
#1810000
0!
0o
1p
#1815000
1!
1o
#1820000
0!
0o
0p
1q
#1825000
1!
1o
#1830000
0!
0o
1p
#1835000
1!
1o
#1840000
0!
0o
0p
0q
0r
1!!
1t
0#!
1"!
0y
1x
0,
1-
0[
1\
#1845000
1!
1o
#1850000
0!
0o
1p
#1855000
1!
1o
#1860000
0!
0o
0p
1q
#1865000
1!
1o
#1870000
0!
0o
1p
#1875000
1!
1o
#1880000
0!
0o
0p
0q
1r
1.!
0-!
1)!
0(!
1#
0$
1S
0T
#1885000
1!
1o
#1890000
0!
0o
1p
#1895000
1!
1o
#1900000
0!
0o
0p
1q
#1905000
1!
1o
#1910000
0!
0o
1p
#1915000
1!
1o
#1920000
0!
0o
0p
0q
0r
0!!
0t
1#!
0"!
1y
0x
1,
0-
1[
0\
0u
0|
0{
0y
0%!
0#!
0[
0,
1*
1Y
1}
1v
1%!
1{
1w
1]
0Y
0*
#1925000
1!
1o
#1930000
0!
0o
1p
#1935000
1!
1o
#1940000
0!
0o
0p
1q
#1945000
1!
1o
#1950000
0!
0o
1p
#1955000
1!
1o
#1960000
0!
0o
0p
0q
1r
0.!
1*!
0)!
0#
1R
0S
#1965000
1!
1o
#1970000
0!
0o
1p
#1975000
1!
1o
#1980000
0!
0o
0p
1q
#1985000
1!
1o
#1990000
0!
0o
1p
#1995000
1!
1o
#2000000
0!
0o
0p
0q
0r
1!!
1t
1~
0w
1s
0]
0!!
0}
0v
0t
0%!
0~
0{
0s
1Y
1*
#2005000
1!
1o
#2010000
0!
0o
1p
#2015000
1!
1o
#2020000
0!
0o
0p
1q
#2025000
1!
1o
#2030000
0!
0o
1p
#2035000
1!
1o
#2040000
0!
0o
0p
0q
1r
1+!
0*!
1&!
1&
0R
1V
#2045000
1!
1o
#2050000
0!
0o
1p
#2055000
1!
1o
#2060000
0!
0o
0p
1q
#2065000
1!
1o
#2070000
0!
0o
1p
#2075000
1!
1o
#2080000
0!
0o
0p
0q
0r
1!!
1t
1%!
1$!
1{
1z
1+
1Z
0Y
0*
#2085000
1!
1o
#2090000
0!
0o
1p
#2095000
1!
1o
#2100000
0!
0o
0p
1q
#2105000
1!
1o
#2110000
0!
0o
1p
#2115000
1!
1o
#2120000
0!
0o
0p
0q
1r
1,!
0+!
1'!
0&!
1%
0&
1U
0V
#2125000
1!
1o
#2130000
0!
0o
1p
#2135000
1!
1o
#2140000
0!
0o
0p
1q
#2145000
1!
1o
#2150000
0!
0o
1p
#2155000
1!
1o
#2160000
0!
0o
0p
0q
0r
0!!
0t
0%!
0$!
0{
0z
0+
0Z
1Y
1*
1u
1|
1{
1y
1%!
1#!
1[
1,
0*
0Y
#2165000
1!
1o
#2170000
0!
0o
1p
#2175000
1!
1o
#2180000
0!
0o
0p
1q
#2185000
1!
1o
#2190000
0!
0o
1p
#2195000
1!
1o
#2200000
0!
0o
0p
0q
1r
1-!
0,!
1(!
0'!
1$
0%
1T
0U
#2205000
1!
1o
#2210000
0!
0o
1p
#2215000
1!
1o
#2220000
0!
0o
0p
1q
#2225000
1!
1o
#2230000
0!
0o
1p
#2235000
1!
1o
#2240000
0!
0o
0p
0q
0r
1!!
1t
0#!
1"!
0y
1x
0,
1-
0[
1\
#2245000
1!
1o
#2250000
0!
0o
1p
#2255000
1!
1o
#2260000
0!
0o
0p
1q
#2265000
1!
1o
#2270000
0!
0o
1p
#2275000
1!
1o
#2280000
0!
0o
0p
0q
1r
1.!
0-!
1)!
0(!
1#
0$
1S
0T
#2285000
1!
1o
#2290000
0!
0o
1p
#2295000
1!
1o
#2300000
0!
0o
0p
1q
#2305000
1!
1o
#2310000
0!
0o
1p
#2315000
1!
1o
#2320000
0!
0o
0p
0q
0r
0!!
0t
1#!
0"!
1y
0x
1,
0-
1[
0\
0u
0|
0{
0y
0%!
0#!
0[
0,
1*
1Y
1}
1v
1%!
1{
1w
1]
0Y
0*
#2325000
1!
1o
#2330000
0!
0o
1p
#2335000
1!
1o
#2340000
0!
0o
0p
1q
#2345000
1!
1o
#2350000
0!
0o
1p
#2355000
1!
1o
#2360000
0!
0o
0p
0q
1r
0.!
1*!
0)!
0#
1R
0S
#2365000
1!
1o
#2370000
0!
0o
1p
#2375000
1!
1o
#2380000
0!
0o
0p
1q
#2385000
1!
1o
#2390000
0!
0o
1p
#2395000
1!
1o
#2400000
0!
0o
0p
0q
0r
1!!
1t
1~
0w
1s
0]
0!!
0}
0v
0t
0%!
0~
0{
0s
1Y
1*
#2405000
1!
1o
#2410000
0!
0o
1p
#2415000
1!
1o
#2420000
0!
0o
0p
1q
#2425000
1!
1o
#2430000
0!
0o
1p
#2435000
1!
1o
#2440000
0!
0o
0p
0q
1r
1+!
0*!
1&!
1&
0R
1V
#2445000
1!
1o
#2450000
0!
0o
1p
#2455000
1!
1o
#2460000
0!
0o
0p
1q
#2465000
1!
1o
#2470000
0!
0o
1p
#2475000
1!
1o
#2480000
0!
0o
0p
0q
0r
1!!
1t
1%!
1$!
1{
1z
1+
1Z
0Y
0*
#2485000
1!
1o
#2490000
0!
0o
1p
#2495000
1!
1o
#2500000
0!
0o
0p
1q
#2505000
1!
1o
#2510000
0!
0o
1p
#2515000
1!
1o
#2520000
0!
0o
0p
0q
1r
1,!
0+!
1'!
0&!
1%
0&
1U
0V
#2525000
1!
1o
#2530000
0!
0o
1p
#2535000
1!
1o
#2540000
0!
0o
0p
1q
#2545000
1!
1o
#2550000
0!
0o
1p
#2555000
1!
1o
#2560000
0!
0o
0p
0q
0r
0!!
0t
0%!
0$!
0{
0z
0+
0Z
1Y
1*
1u
1|
1{
1y
1%!
1#!
1[
1,
0*
0Y
#2565000
1!
1o
#2570000
0!
0o
1p
#2575000
1!
1o
#2580000
0!
0o
0p
1q
#2585000
1!
1o
#2590000
0!
0o
1p
#2595000
1!
1o
#2600000
0!
0o
0p
0q
1r
1-!
0,!
1(!
0'!
1$
0%
1T
0U
#2605000
1!
1o
#2610000
0!
0o
1p
#2615000
1!
1o
#2620000
0!
0o
0p
1q
#2625000
1!
1o
#2630000
0!
0o
1p
#2635000
1!
1o
#2640000
0!
0o
0p
0q
0r
1!!
1t
0#!
1"!
0y
1x
0,
1-
0[
1\
#2645000
1!
1o
#2650000
0!
0o
1p
#2655000
1!
1o
#2660000
0!
0o
0p
1q
#2665000
1!
1o
#2670000
0!
0o
1p
#2675000
1!
1o
#2680000
0!
0o
0p
0q
1r
1.!
0-!
1)!
0(!
1#
0$
1S
0T
#2685000
1!
1o
#2690000
0!
0o
1p
#2695000
1!
1o
#2700000
0!
0o
0p
1q
#2705000
1!
1o
#2710000
0!
0o
1p
#2715000
1!
1o
#2720000
0!
0o
0p
0q
0r
0!!
0t
1#!
0"!
1y
0x
1,
0-
1[
0\
0u
0|
0{
0y
0%!
0#!
0[
0,
1*
1Y
1}
1v
1%!
1{
1w
1]
0Y
0*
#2725000
1!
1o
#2730000
0!
0o
1p
#2735000
1!
1o
#2740000
0!
0o
0p
1q
#2745000
1!
1o
#2750000
0!
0o
1p
#2755000
1!
1o
#2760000
0!
0o
0p
0q
1r
0.!
1*!
0)!
0#
1R
0S
#2765000
1!
1o
#2770000
0!
0o
1p
#2775000
1!
1o
#2780000
0!
0o
0p
1q
#2785000
1!
1o
#2790000
0!
0o
1p
#2795000
1!
1o
#2800000
0!
0o
0p
0q
0r
1!!
1t
1~
0w
1s
0]
0!!
0}
0v
0t
0%!
0~
0{
0s
1Y
1*
#2805000
1!
1o
#2810000
0!
0o
1p
#2815000
1!
1o
#2820000
0!
0o
0p
1q
#2825000
1!
1o
#2830000
0!
0o
1p
#2835000
1!
1o
#2840000
0!
0o
0p
0q
1r
1+!
0*!
1&!
1&
0R
1V
#2845000
1!
1o
#2850000
0!
0o
1p
#2855000
1!
1o
#2860000
0!
0o
0p
1q
#2865000
1!
1o
#2870000
0!
0o
1p
#2875000
1!
1o
#2880000
0!
0o
0p
0q
0r
1!!
1t
1%!
1$!
1{
1z
1+
1Z
0Y
0*
#2885000
1!
1o
#2890000
0!
0o
1p
#2895000
1!
1o
#2900000
0!
0o
0p
1q
#2905000
1!
1o
#2910000
0!
0o
1p
#2915000
1!
1o
#2920000
0!
0o
0p
0q
1r
1,!
0+!
1'!
0&!
1%
0&
1U
0V
#2925000
1!
1o
#2930000
0!
0o
1p
#2935000
1!
1o
#2940000
0!
0o
0p
1q
#2945000
1!
1o
#2950000
0!
0o
1p
#2955000
1!
1o
#2960000
0!
0o
0p
0q
0r
0!!
0t
0%!
0$!
0{
0z
0+
0Z
1Y
1*
1u
1|
1{
1y
1%!
1#!
1[
1,
0*
0Y
#2965000
1!
1o
#2970000
0!
0o
1p
#2975000
1!
1o
#2980000
0!
0o
0p
1q
#2985000
1!
1o
#2990000
0!
0o
1p
#2995000
1!
1o
#3000000
0!
0o
0p
0q
1r
1-!
0,!
1(!
0'!
1$
0%
1T
0U
#3005000
1!
1o
#3010000
0!
0o
1p
#3015000
1!
1o
#3020000
0!
0o
0p
1q
#3025000
1!
1o
#3030000
0!
0o
1p
#3035000
1!
1o
#3040000
0!
0o
0p
0q
0r
1!!
1t
0#!
1"!
0y
1x
0,
1-
0[
1\
#3045000
1!
1o
#3050000
0!
0o
1p
#3055000
1!
1o
#3060000
0!
0o
0p
1q
#3065000
1!
1o
#3070000
0!
0o
1p
#3075000
1!
1o
#3080000
0!
0o
0p
0q
1r
1.!
0-!
1)!
0(!
1#
0$
1S
0T
#3085000
1!
1o
#3090000
0!
0o
1p
#3095000
1!
1o
#3100000
0!
0o
0p
1q
#3105000
1!
1o
#3110000
0!
0o
1p
#3115000
1!
1o
#3120000
0!
0o
0p
0q
0r
0!!
0t
1#!
0"!
1y
0x
1,
0-
1[
0\
0u
0|
0{
0y
0%!
0#!
0[
0,
1*
1Y
1}
1v
1%!
1{
1w
1]
0Y
0*
#3125000
1!
1o
#3130000
0!
0o
1p
#3135000
1!
1o
#3140000
0!
0o
0p
1q
#3145000
1!
1o
#3150000
0!
0o
1p
#3155000
1!
1o
#3160000
0!
0o
0p
0q
1r
0.!
1*!
0)!
0#
1R
0S
#3165000
1!
1o
#3170000
0!
0o
1p
#3175000
1!
1o
#3180000
0!
0o
0p
1q
#3185000
1!
1o
#3190000
0!
0o
1p
#3195000
1!
1o
#3200000
0!
0o
0p
0q
0r
1!!
1t
1~
0w
1s
0]
0!!
0}
0v
0t
0%!
0~
0{
0s
1Y
1*
#3205000
1!
1o
#3210000
0!
0o
1p
#3215000
1!
1o
#3220000
0!
0o
0p
1q
#3225000
1!
1o
#3230000
0!
0o
1p
#3235000
1!
1o
