simulation/qsim/batalha_naval.msim.vcd
$comment
	File created using the following command:
		vcd file batalha_naval.msim.vcd -direction
$end
$date
	Tue Dec 05 22:19:32 2023
$end
$version
	ModelSim Version 2020.1
$end
$timescale
	1ps
$end

$scope module batalha_naval_vlg_vec_tst $end
$var reg 1 ! confirmAttack $end
$var reg 1 " cpld_clk $end
$var reg 2 # game_state_code [1:0] $end
$var reg 1 $ nextMap $end
$var reg 3 % x_coord_code [2:0] $end
$var reg 3 & y_coord_code [2:0] $end
$var wire 1 ' display_colune_activator [3] $end
$var wire 1 ( display_colune_activator [2] $end
$var wire 1 ) display_colune_activator [1] $end
$var wire 1 * display_colune_activator [0] $end
$var wire 1 + display_colune_data [6] $end
$var wire 1 , display_colune_data [5] $end
$var wire 1 - display_colune_data [4] $end
$var wire 1 . display_colune_data [3] $end
$var wire 1 / display_colune_data [2] $end
$var wire 1 0 display_colune_data [1] $end
$var wire 1 1 display_colune_data [0] $end
$var wire 1 2 ledRgb [1] $end
$var wire 1 3 ledRgb [0] $end
$var wire 1 4 matriz_colune_activator [4] $end
$var wire 1 5 matriz_colune_activator [3] $end
$var wire 1 6 matriz_colune_activator [2] $end
$var wire 1 7 matriz_colune_activator [1] $end
$var wire 1 8 matriz_colune_activator [0] $end
$var wire 1 9 matriz_colune_data [6] $end
$var wire 1 : matriz_colune_data [5] $end
$var wire 1 ; matriz_colune_data [4] $end
$var wire 1 < matriz_colune_data [3] $end
$var wire 1 = matriz_colune_data [2] $end
$var wire 1 > matriz_colune_data [1] $end
$var wire 1 ? matriz_colune_data [0] $end

$scope module i1 $end
$var wire 1 @ gnd $end
$var wire 1 A vcc $end
$var wire 1 B unknown $end
$var tri1 1 C devclrn $end
$var tri1 1 D devpor $end
$var tri1 1 E devoe $end
$var wire 1 F cpld_clk~combout $end
$var wire 1 G freq_div_1|t_flipflop_0|out~regout $end
$var wire 1 H freq_div_1|t_flipflop_1|out~regout $end
$var wire 1 I freq_div_1|t_flipflop_2|out~regout $end
$var wire 1 J game_state_decoder_1|and1~combout $end
$var wire 1 K game_state_decoder_1|or0~0_combout $end
$var wire 1 L matriz_displayer|andLoopResetEnable~combout $end
$var wire 1 M matriz_displayer|counter3bit_1|t_flipflop_0|out~regout $end
$var wire 1 N matriz_displayer|counter3bit_1|t_flipflop_1|out~regout $end
$var wire 1 O matriz_displayer|counter3bit_1|t_flipflop_2|out~regout $end
$var wire 1 P nextMap~combout $end
$var wire 1 Q debouncerNextMap|or0~combout $end
$var wire 1 R debouncerNextMap|t_flipflop_1|out~regout $end
$var wire 1 S debouncerNextMap|t_flipflop_2|out~regout $end
$var wire 1 T debouncerNextMap|t_flipflop_3|out~regout $end
$var wire 1 U debouncerNextMap|t_flipflop_4|out~regout $end
$var wire 1 V debouncerNextMap|t_flipflop_5|out~regout $end
$var wire 1 W debouncerNextMap|and0~0_combout $end
$var wire 1 X debouncerNextMap|and0~combout $end
$var wire 1 Y counterMapCode|t_flipflop_0|out~regout $end
$var wire 1 Z matriz_displayer|mux8x1_1[0]|or1~0_combout $end
$var wire 1 [ matriz_displayer|counter3bit_1|andLoopStart_1~0 $end
$var wire 1 \ matriz_displayer|mux8x1_1[0]|or1~1_combout $end
$var wire 1 ] matriz_displayer|mux8x1_1[1]|or1~3_combout $end
$var wire 1 ^ matriz_displayer|mux8x1_1[1]|or1~4_combout $end
$var wire 1 _ matriz_displayer|mux8x1_1[2]|or1~2_combout $end
$var wire 1 ` matriz_displayer|mux8x1_1[2]|or1~3_combout $end
$var wire 1 a matriz_displayer|counter3bit_1|andLoopStart_1~1_combout $end
$var wire 1 b matriz_displayer|mux8x1_1[1]|or1~2_combout $end
$var wire 1 c matriz_displayer|mux8x1_1[3]|or1~0_combout $end
$var wire 1 d matriz_displayer|mux8x1_1[4]|or1~0_combout $end
$var wire 1 e matriz_displayer|mux8x1_1[5]|or1~0_combout $end
$var wire 1 f matriz_displayer|mux8x1_1[6]|or1~2_combout $end
$var wire 1 g matriz_displayer|mux8x1_1[6]|or1~3_combout $end
$var wire 1 h segment_display|andLoopResetEnable~combout $end
$var wire 1 i segment_display|counter3bit_1|t_flipflop_0|out~regout $end
$var wire 1 j segment_display|counter3bit_1|t_flipflop_1|out~regout $end
$var wire 1 k segment_display|counter3bit_1|t_flipflop_2|out~regout $end
$var wire 1 l segment_display|mux8x1_1[6]|mux4x1_1|andEnable~0_combout $end
$var wire 1 m segment_display|mux8x1_1[0]|mux4x1_1|andEnable~3_combout $end
$var wire 1 n segment_display|mux8x1_1[0]|mux4x1_1|andEnable~0_combout $end
$var wire 1 o segment_display|mux8x1_1[0]|mux4x1_1|andEnable~1_combout $end
$var wire 1 p segment_display|mux8x1_1[0]|mux4x1_1|andEnable~2_combout $end
$var wire 1 q segment_display|mux8x1_1[0]|mux4x1_1|andEnable~4_combout $end
$var wire 1 r segment_display|mux8x1_1[1]|mux4x1_1|andEnable~0_combout $end
$var wire 1 s segment_display|mux8x1_1[1]|mux4x1_1|andEnable~1_combout $end
$var wire 1 t segment_display|mux8x1_1[1]|mux4x1_1|andEnable~2_combout $end
$var wire 1 u segment_display|mux8x1_1[1]|mux4x1_1|andEnable~3_combout $end
$var wire 1 v segment_display|mux8x1_1[2]|mux4x1_1|or1~4_combout $end
$var wire 1 w segment_display|mux8x1_1[2]|mux4x1_1|or1~1_combout $end
$var wire 1 x segment_display|mux8x1_1[2]|mux4x1_1|or1~2_combout $end
$var wire 1 y segment_display|mux8x1_1[2]|mux4x1_1|or1~0_combout $end
$var wire 1 z segment_display|mux8x1_1[2]|mux4x1_1|or1~3_combout $end
$var wire 1 { segment_display|mux8x1_1[2]|mux4x1_1|andEnable~0_combout $end
$var wire 1 | segment_display|mux8x1_1[3]|mux4x1_1|andEnable~0_combout $end
$var wire 1 } segment_display|mux8x1_1[3]|mux4x1_1|andEnable~1_combout $end
$var wire 1 ~ segment_display|mux8x1_1[3]|mux4x1_1|andEnable~2_combout $end
$var wire 1 !! segment_display|mux8x1_1[3]|mux4x1_1|andEnable~3_combout $end
$var wire 1 "! segment_display|mux8x1_1[3]|mux4x1_1|andEnable~4_combout $end
$var wire 1 #! segment_display|mux8x1_1[4]|mux4x1_1|or1~3_combout $end
$var wire 1 $! segment_display|mux8x1_1[4]|mux4x1_1|or1~0_combout $end
$var wire 1 %! segment_display|mux8x1_1[4]|mux4x1_1|or1~1_combout $end
$var wire 1 &! segment_display|mux8x1_1[4]|mux4x1_1|or1~2_combout $end
$var wire 1 '! segment_display|mux8x1_1[4]|mux4x1_1|andEnable~0_combout $end
$var wire 1 (! segment_display|mux8x1_1[5]|mux4x1_1|andEnable~1_combout $end
$var wire 1 )! segment_display|mux8x1_1[5]|mux4x1_1|andEnable~0_combout $end
$var wire 1 *! segment_display|mux8x1_1[5]|mux4x1_1|andEnable~2_combout $end
$var wire 1 +! segment_display|mux8x1_1[5]|mux4x1_1|andEnable~3_combout $end
$var wire 1 ,! segment_display|mux8x1_1[5]|mux4x1_1|andEnable~4_combout $end
$var wire 1 -! segment_display|mux8x1_1[6]|mux4x1_1|andEnable~1_combout $end
$var wire 1 .! segment_display|mux8x1_1[6]|mux4x1_1|andEnable~2_combout $end
$var wire 1 /! segment_display|mux8x1_1[6]|mux4x1_1|andEnable~3_combout $end
$var wire 1 0! segment_display|mux8x1_1[6]|mux4x1_1|andEnable~4_combout $end
$var wire 1 1! segment_display|mux8x1_1[6]|mux4x1_1|andEnable~5_combout $end
$var wire 1 2! matriz_displayer|register8bitSIPO_1|d_flipflop_0|out~regout $end
$var wire 1 3! matriz_displayer|register8bitSIPO_1|d_flipflop_1|out~regout $end
$var wire 1 4! matriz_displayer|register8bitSIPO_1|d_flipflop_2|out~regout $end
$var wire 1 5! matriz_displayer|register8bitSIPO_1|d_flipflop_3|out~regout $end
$var wire 1 6! matriz_displayer|register8bitSIPO_1|d_flipflop_4|out~regout $end
$var wire 1 7! segment_display|register8bitSIPO_1|d_flipflop_0|out~regout $end
$var wire 1 8! segment_display|register8bitSIPO_1|d_flipflop_1|out~regout $end
$var wire 1 9! segment_display|register8bitSIPO_1|d_flipflop_2|out~regout $end
$var wire 1 :! segment_display|register8bitSIPO_1|d_flipflop_3|out~regout $end
$var wire 1 ;! confirmAttack~combout $end
$var wire 1 <! debouncerConfirmAttack|t_flipflop_2|out~regout $end
$var wire 1 =! debouncerConfirmAttack|t_flipflop_3|out~regout $end
$var wire 1 >! debouncerConfirmAttack|t_flipflop_4|out~regout $end
$var wire 1 ?! debouncerConfirmAttack|t_flipflop_5|out~regout $end
$var wire 1 @! debouncerConfirmAttack|or0~combout $end
$var wire 1 A! debouncerConfirmAttack|t_flipflop_1|out~regout $end
$var wire 1 B! debouncerConfirmAttack|and0~0_combout $end
$var wire 1 C! attack_round_1|selected_map_register[31]|out~regout $end
$var wire 1 D! attack_round_1|yCoordMuxSelectedMap|or1~10_combout $end
$var wire 1 E! attack_round_1|selected_map_register[32]|out~regout $end
$var wire 1 F! attack_round_1|yCoordMuxSelectedMap|or1~11_combout $end
$var wire 1 G! attack_round_1|yCoordMuxSelectedMap|or1~12_combout $end
$var wire 1 H! attack_round_1|yCoordMuxSelectedMap|or1~13_combout $end
$var wire 1 I! attack_round_1|yCoordMuxSelectedMap|or1~14_combout $end
$var wire 1 J! attack_round_1|yCoordMuxSelectedMap|or1~1_combout $end
$var wire 1 K! attack_round_1|yCoordMuxSelectedMap|or1~0_combout $end
$var wire 1 L! attack_round_1|selected_map_register[34]|out~regout $end
$var wire 1 M! attack_round_1|yCoordMuxSelectedMap|or1~4_combout $end
$var wire 1 N! attack_round_1|yCoordMuxSelectedMap|or1~5_combout $end
$var wire 1 O! attack_round_1|yCoordMuxSelectedMap|or1~6_combout $end
$var wire 1 P! attack_round_1|yCoordMuxSelectedMap|or1~2 $end
$var wire 1 Q! attack_round_1|yCoordMuxSelectedMap|or1~3_combout $end
$var wire 1 R! attack_round_1|yCoordMuxSelectedMap|or1~8_combout $end
$var wire 1 S! attack_round_1|yCoordMuxSelectedMap|or1~7_combout $end
$var wire 1 T! attack_round_1|yCoordMuxSelectedMap|or1~9_combout $end
$var wire 1 U! attack_round_1|yCoordMuxSelectedMap|or1~15_combout $end
$var wire 1 V! attack_round_1|andGreen~0_combout $end
$var wire 1 W! attack_round_1|andRed~0_combout $end
$var wire 1 X! game_state_code~combout [1] $end
$var wire 1 Y! game_state_code~combout [0] $end
$var wire 1 Z! x_coord_code~combout [2] $end
$var wire 1 [! x_coord_code~combout [1] $end
$var wire 1 \! x_coord_code~combout [0] $end
$var wire 1 ]! y_coord_code~combout [2] $end
$var wire 1 ^! y_coord_code~combout [1] $end
$var wire 1 _! y_coord_code~combout [0] $end
$upscope $end
$upscope $end
$enddefinitions $end
#0
$dumpvars
0!
0"
b11 #
1$
b1 %
b1 &
x*
x)
x(
x'
x1
x0
x/
x.
x-
x,
x+
x3
x2
x8
x7
x6
x5
x4
x?
x>
x=
x<
x;
x:
x9
0@
1A
xB
1C
1D
1E
xF
0G
0H
0I
xJ
xK
xL
0M
0N
0O
xP
xQ
0R
0S
0T
0U
0V
xW
xX
0Y
xZ
x[
x\
x]
x^
x_
x`
xa
xb
xc
xd
xe
xf
xg
xh
0i
0j
0k
xl
xm
xn
xo
xp
xq
xr
xs
xt
xu
xv
xw
xx
xy
xz
x{
x|
x}
x~
x!!
x"!
x#!
x$!
x%!
x&!
x'!
x(!
x)!
x*!
x+!
x,!
x-!
x.!
x/!
x0!
x1!
02!
03!
04!
05!
06!
07!
08!
09!
0:!
x;!
0<!
0=!
0>!
0?!
x@!
0A!
xB!
0C!
xD!
0E!
xF!
xG!
xH!
xI!
xJ!
xK!
0L!
xM!
xN!
xO!
xP!
xQ!
xR!
xS!
xT!
xU!
xV!
xW!
xY!
xX!
x\!
x[!
xZ!
x_!
x^!
x]!
$end
#1119
0W
#1132
0F
1Y!
1X!
0^!
1_!
0]!
0Z!
1\!
0[!
#1163
1P
0;!
#1655
0B!
#1810
0X
#1913
0W!
#1914
0V!
#2161
xI
#2322
0M!
#2635
0J
#2668
0_
#2669
1a
#2672
0]
#2765
0Z
#2795
0#!
#2840
1[
#2967
1f
#3177
0S!
#3360
0F!
#3579
0n
#3612
0D!
#3975
0c
#4034
0(!
#4041
0o
#4047
0r
#4050
0|
#4100
0T!
#4122
1@!
#4126
0Q
#4177
07
#4180
08
#4186
0'
#4192
05
#4216
04
#4253
0*
#4275
0`
#4333
0^
#4623
1l
#4940
x@!
#4951
0(
#5000
1"
#5041
1)!
#5104
06
#5113
0)
#5196
0\
#5233
0G!
#5296
0K
#5339
0O!
#5412
0J!
#5551
0t
#5554
1*!
#5560
1y
#5972
03
#6026
1K!
#6035
1N!
#6044
0H!
#6071
0%!
#6132
1F
#6136
02
#6142
1-!
#6234
1$!
#6295
1g
#6314
0w
#6323
1+!
#6327
0v
#6563
1x
#6776
1&!
#6864
0I!
#6879
0"!
#6887
1/!
#6896
1R!
#6954
1b
#7200
0L
#7223
0=
#7246
1,!
#7261
0>
#7330
0h
#7391
1~
#7393
1m
#7759
1.!
#7911
1e
#7913
1d
#8034
0<
#8084
0Q!
#8124
0?
#8152
0P!
#8311
1!!
#8338
1p
#8339
1s
#8346
1}
10!
#8440
1z
#8486
1'!
#8664
1q
#9356
0U!
#10000
0"
#10180
1,
#10354
1{
#10360
11!
#10428
19
#10839
1:
#10847
1;
#10903
1u
#11132
0F
#11592
11
#12500
1.
#13130
1-
#13294
1+
#14337
1G
#14699
1/
#15000
1"
#15083
10
#16132
1F
#20000
0"
#21132
0F
#24337
0G
#25000
1"
#26132
1F
#27452
1H
#30000
0"
#31132
0F
#34337
1G
#35000
1"
#36132
1F
#40000
0"
#41132
0F
#44337
0G
#45000
1"
#46132
1F
#47452
0H
#50000
0"
#51132
0F
#54337
1G
#55000
1"
#56132
1F
#60000
0"
#61132
0F
#64337
0G
#65000
1"
#66132
1F
#67452
1H
#70000
0"
#71132
0F
#74337
1G
#75000
1"
#76132
1F
#80000
0"
#81132
0F
#84337
0G
#85000
1"
#86132
1F
#87452
0H
#90000
0"
#91132
0F
#94337
1G
#95000
1"
#96132
1F
#100000
0"
#101132
0F
#104337
0G
#105000
1"
#106132
1F
#107452
1H
#110000
0"
#111132
0F
#114337
1G
#115000
1"
#116132
1F
#120000
0"
#121132
0F
#124337
0G
#125000
1"
#126132
1F
#127452
0H
#130000
0"
#131132
0F
#134337
1G
#135000
1"
#136132
1F
#140000
0"
#141132
0F
#144337
0G
#145000
1"
#146132
1F
#147452
1H
#150000
0"
#151132
0F
#154337
1G
#155000
1"
#156132
1F
#160000
0"
#161132
0F
#164337
0G
#165000
1"
#166132
1F
#167452
0H
#170000
0"
#171132
0F
#174337
1G
#175000
1"
#176132
1F
#180000
0"
#181132
0F
#184337
0G
#185000
1"
#186132
1F
#187452
1H
#190000
0"
#191132
0F
#194337
1G
#195000
1"
#196132
1F
#200000
0"
#201132
0F
#204337
0G
#205000
1"
#206132
1F
#207452
0H
#210000
0"
#211132
0F
#214337
1G
#215000
1"
#216132
1F
#220000
0"
#221132
0F
#224337
0G
#225000
1"
#226132
1F
#227452
1H
#230000
0"
#231132
0F
#234337
1G
#235000
1"
#236132
1F
#240000
0"
#241132
0F
#244337
0G
#245000
1"
#246132
1F
#247452
0H
#250000
0"
#251132
0F
#254337
1G
#255000
1"
#256132
1F
#260000
0"
#261132
0F
#264337
0G
#265000
1"
#266132
1F
#267452
1H
#270000
0"
#271132
0F
#274337
1G
#275000
1"
#276132
1F
#280000
0"
#281132
0F
#284337
0G
#285000
1"
#286132
1F
#287452
0H
#290000
0"
#291132
0F
#294337
1G
#295000
1"
#296132
1F
#300000
0"
#301132
0F
#304337
0G
#305000
1"
#306132
1F
#307452
1H
#310000
0"
#311132
0F
#314337
1G
#315000
1"
#316132
1F
#320000
0"
#321132
0F
#324337
0G
#325000
1"
#326132
1F
#327452
0H
#330000
0"
#331132
0F
#334337
1G
#335000
1"
#336132
1F
#340000
0"
#341132
0F
#344337
0G
#345000
1"
#346132
1F
#347452
1H
#350000
0"
#351132
0F
#354337
1G
#355000
1"
#356132
1F
#360000
0"
#361132
0F
#364337
0G
#365000
1"
#366132
1F
#367452
0H
#370000
0"
#371132
0F
#374337
1G
#375000
1"
#376132
1F
#380000
0"
#381132
0F
#384337
0G
#385000
1"
#386132
1F
#387452
1H
#390000
0"
#391132
0F
#394337
1G
#395000
1"
#396132
1F
#400000
0"
#401132
0F
#404337
0G
#405000
1"
#406132
1F
#407452
0H
#410000
0"
#411132
0F
#414337
1G
#415000
1"
#416132
1F
#420000
0"
#421132
0F
#424337
0G
#425000
1"
#426132
1F
#427452
1H
#430000
0"
#431132
0F
#434337
1G
#435000
1"
#436132
1F
#440000
0"
#441132
0F
#444337
0G
#445000
1"
#446132
1F
#447452
0H
#450000
1!
0"
#451132
0F
#451163
1;!
#454122
0@!
#454337
1G
#455000
1"
#456132
1F
#460000
0"
#461132
0F
#464337
0G
#465000
1"
#466132
1F
#467452
1H
#470000
0"
#471132
0F
#474337
1G
#475000
1"
#476132
1F
#480000
0"
#481132
0F
#484337
0G
#485000
1"
#486132
1F
#487452
0H
#490000
0"
#491132
0F
#494337
1G
#495000
1"
#496132
1F
#500000
0"
#501132
0F
#504337
0G
#505000
1"
#506132
1F
#507452
1H
#510000
0"
#511132
0F
#514337
1G
#515000
1"
#516132
1F
#520000
0"
#521132
0F
#524337
0G
#525000
1"
#526132
1F
#527452
0H
#530000
0"
#531132
0F
#534337
1G
#535000
1"
#536132
1F
#540000
0"
#541132
0F
#544337
0G
#545000
1"
#546132
1F
#547452
1H
#550000
0"
#551132
0F
#554337
1G
#555000
1"
#556132
1F
#560000
0"
#561132
0F
#564337
0G
#565000
1"
#566132
1F
#567452
0H
#570000
0"
#571132
0F
#574337
1G
#575000
1"
#576132
1F
#580000
0"
#581132
0F
#584337
0G
#585000
1"
#586132
1F
#587452
1H
#590000
0"
#591132
0F
#594337
1G
#595000
1"
#596132
1F
#600000
0"
#601132
0F
#604337
0G
#605000
1"
#606132
1F
#607452
0H
#610000
0"
#611132
0F
#614337
1G
#615000
1"
#616132
1F
#620000
0"
#621132
0F
#624337
0G
#625000
1"
#626132
1F
#627452
1H
#630000
0"
#631132
0F
#634337
1G
#635000
1"
#636132
1F
#640000
0"
#641132
0F
#644337
0G
#645000
1"
#646132
1F
#647452
0H
#650000
0"
#651132
0F
#654337
1G
#655000
1"
#656132
1F
#660000
0"
#661132
0F
#664337
0G
#665000
1"
#666132
1F
#667452
1H
#670000
0"
#671132
0F
#674337
1G
#675000
1"
#676132
1F
#680000
0"
#681132
0F
#684337
0G
#685000
1"
#686132
1F
#687452
0H
#690000
0"
#691132
0F
#694337
1G
#695000
1"
#696132
1F
#700000
0"
#701132
0F
#704337
0G
#705000
1"
#706132
1F
#707452
1H
#710000
0"
#711132
0F
#714337
1G
#715000
1"
#716132
1F
#720000
0"
#721132
0F
#724337
0G
#725000
1"
#726132
1F
#727452
0H
#730000
0"
#731132
0F
#734337
1G
#735000
1"
#736132
1F
#740000
0"
#741132
0F
#744337
0G
#745000
1"
#746132
1F
#747452
1H
#750000
0"
#751132
0F
#754337
1G
#755000
1"
#756132
1F
#760000
0"
#761132
0F
#764337
0G
#765000
1"
#766132
1F
#767452
0H
#770000
0"
#771132
0F
#774337
1G
#775000
1"
#776132
1F
#780000
0"
#781132
0F
#784337
0G
#785000
1"
#786132
1F
#787452
1H
#790000
0"
#791132
0F
#794337
1G
#795000
1"
#796132
1F
#800000
b10 #
0"
#801132
0F
0Y!
#802635
1J
#804337
0G
#804623
0l
#805000
1"
#805195
0g
#805196
1\
#805554
0*!
#805560
0y
#805809
0b
#805905
1l
#806132
1F
#806234
0$!
#806563
0x
#806766
0e
#806768
0d
#807452
0H
#808124
1?
#808338
0p
1C!
1E!
#808339
0s
#808346
0}
00!
#808440
0z
#809328
09
#809694
0:
#809702
0;
#810000
0"
#810354
0{
#810440
1P!
#810903
0u
#811132
0F
#811698
1F!
#814337
1G
#814699
0/
#815000
1"
#815083
00
#816132
1F
#820000
0"
#821132
0F
#824337
0G
#825000
1"
#826132
1F
#827452
1H
#830000
0"
#831132
0F
#834337
1G
#835000
1"
#836132
1F
#840000
0"
#841132
0F
#844337
0G
#845000
1"
#846132
1F
#847452
0H
#850000
0"
#851132
0F
#854337
1G
#855000
1"
#856132
1F
#860000
0"
#861132
0F
#864337
0G
#865000
1"
#866132
1F
#867452
1H
#870000
0"
#871132
0F
#874337
1G
#875000
1"
#876132
1F
#880000
0"
#881132
0F
#884337
0G
#885000
1"
#886132
1F
#887452
0H
#890000
0"
#891132
0F
#894337
1G
#895000
1"
#896132
1F
#900000
0!
0"
#901132
0F
#901163
0;!
#904122
x@!
#904337
0G
#905000
1"
#906132
1F
#907452
1H
#910000
0"
#911132
0F
#914337
1G
#915000
1"
#916132
1F
#920000
0"
#921132
0F
#924337
0G
#925000
1"
#926132
1F
#927452
0H
#930000
0"
#931132
0F
#934337
1G
#935000
1"
#936132
1F
#940000
0"
#941132
0F
#944337
0G
#945000
1"
#946132
1F
#947452
1H
#950000
0"
#951132
0F
#954337
1G
#955000
1"
#956132
1F
#960000
0"
#961132
0F
#964337
0G
#965000
1"
#966132
1F
#967452
0H
#970000
0"
#971132
0F
#974337
1G
#975000
1"
#976132
1F
#980000
0"
#981132
0F
#984337
0G
#985000
1"
#986132
1F
#987452
1H
#990000
0"
#991132
0F
#994337
1G
#995000
1"
#996132
1F
#1000000
0"
#1001132
0F
#1004337
0G
#1005000
1"
#1006132
1F
#1007452
0H
#1010000
0"
#1011132
0F
#1014337
1G
#1015000
1"
#1016132
1F
#1020000
0"
#1021132
0F
#1024337
0G
#1025000
1"
#1026132
1F
#1027452
1H
#1030000
0"
#1031132
0F
#1034337
1G
#1035000
1"
#1036132
1F
#1040000
0"
#1041132
0F
#1044337
0G
#1045000
1"
#1046132
1F
#1047452
0H
#1050000
0"
#1051132
0F
#1054337
1G
#1055000
1"
#1056132
1F
#1060000
0"
#1061132
0F
#1064337
0G
#1065000
1"
#1066132
1F
#1067452
1H
#1070000
0"
#1071132
0F
#1074337
1G
#1075000
1"
#1076132
1F
#1080000
0"
#1081132
0F
#1084337
0G
#1085000
1"
#1086132
1F
#1087452
0H
#1090000
0"
#1091132
0F
#1094337
1G
#1095000
1"
#1096132
1F
#1100000
0"
#1101132
0F
#1104337
0G
#1105000
1"
#1106132
1F
#1107452
1H
#1110000
0"
#1111132
0F
#1114337
1G
#1115000
1"
#1116132
1F
#1120000
0"
#1121132
0F
#1124337
0G
#1125000
1"
#1126132
1F
#1127452
0H
#1130000
0"
#1131132
0F
#1134337
1G
#1135000
1"
#1136132
1F
#1140000
0"
#1141132
0F
#1144337
0G
#1145000
1"
#1146132
1F
#1147452
1H
#1150000
0"
#1151132
0F
#1154337
1G
#1155000
1"
#1156132
1F
#1160000
0"
#1161132
0F
#1164337
0G
#1165000
1"
#1166132
1F
#1167452
0H
#1170000
0"
#1171132
0F
#1174337
1G
#1175000
1"
#1176132
1F
#1180000
0"
#1181132
0F
#1184337
0G
#1185000
1"
#1186132
1F
#1187452
1H
#1190000
0"
#1191132
0F
#1194337
1G
#1195000
1"
#1196132
1F
#1200000
0"
#1201132
0F
#1204337
0G
#1205000
1"
#1206132
1F
#1207452
0H
#1210000
0"
#1211132
0F
#1214337
1G
#1215000
1"
#1216132
1F
#1220000
0"
#1221132
0F
#1224337
0G
#1225000
1"
#1226132
1F
#1227452
1H
#1230000
0"
#1231132
0F
#1234337
1G
#1235000
1"
#1236132
1F
#1240000
0"
#1241132
0F
#1244337
0G
#1245000
1"
#1246132
1F
#1247452
0H
#1250000
0"
#1251132
0F
#1254337
1G
#1255000
1"
#1256132
1F
#1260000
0"
#1261132
0F
#1264337
0G
#1265000
1"
#1266132
1F
#1267452
1H
#1270000
0"
#1271132
0F
#1274337
1G
#1275000
1"
#1276132
1F
#1280000
0"
#1281132
0F
#1284337
0G
#1285000
1"
#1286132
1F
#1287452
0H
#1290000
0"
#1291132
0F
#1294337
1G
#1295000
1"
#1296132
1F
#1300000
0"
#1301132
0F
#1304337
0G
#1305000
1"
#1306132
1F
#1307452
1H
#1310000
0"
#1311132
0F
#1314337
1G
#1315000
1"
#1316132
1F
#1320000
0"
#1321132
0F
#1324337
0G
#1325000
1"
#1326132
1F
#1327452
0H
#1330000
0"
#1331132
0F
#1334337
1G
#1335000
1"
#1336132
1F
#1340000
0"
#1341132
0F
#1344337
0G
#1345000
1"
#1346132
1F
#1347452
1H
#1350000
1!
0"
#1351132
0F
#1351163
1;!
#1354122
0@!
#1354337
1G
#1355000
1"
#1356132
1F
#1360000
0"
#1361132
0F
#1364337
0G
#1365000
1"
#1366132
1F
#1367452
0H
#1370000
0"
#1371132
0F
#1374337
1G
#1375000
1"
#1376132
1F
#1380000
0"
#1381132
0F
#1384337
0G
#1385000
1"
#1386132
1F
#1387452
1H
#1390000
0"
#1391132
0F
#1394337
1G
#1395000
1"
#1396132
1F
#1400000
0"
#1401132
0F
#1404337
0G
#1405000
1"
#1406132
1F
#1407452
0H
#1410000
0"
#1411132
0F
#1414337
1G
#1415000
1"
#1416132
1F
#1420000
0"
#1421132
0F
#1424337
0G
#1425000
1"
#1426132
1F
#1427452
1H
#1430000
0"
#1431132
0F
#1434337
1G
#1435000
1"
#1436132
1F
#1440000
0"
#1441132
0F
#1444337
0G
#1445000
1"
#1446132
1F
#1447452
0H
#1450000
0"
#1451132
0F
#1454337
1G
#1455000
1"
#1456132
1F
#1460000
0"
#1461132
0F
#1464337
0G
#1465000
1"
#1466132
1F
#1467452
1H
#1470000
0"
#1471132
0F
#1474337
1G
#1475000
1"
#1476132
1F
#1480000
0"
#1481132
0F
#1484337
0G
#1485000
1"
#1486132
1F
#1487452
0H
#1490000
0"
#1491132
0F
#1494337
1G
#1495000
1"
#1496132
1F
#1500000
0"
#1501132
0F
#1504337
0G
#1505000
1"
#1506132
1F
#1507452
1H
#1510000
0"
#1511132
0F
#1514337
1G
#1515000
1"
#1516132
1F
#1520000
0"
#1521132
0F
#1524337
0G
#1525000
1"
#1526132
1F
#1527452
0H
#1530000
0"
#1531132
0F
#1534337
1G
#1535000
1"
#1536132
1F
#1540000
0"
#1541132
0F
#1544337
0G
#1545000
1"
#1546132
1F
#1547452
1H
#1550000
0"
#1551132
0F
#1554337
1G
#1555000
1"
#1556132
1F
#1560000
0"
#1561132
0F
#1564337
0G
#1565000
1"
#1566132
1F
#1567452
0H
#1570000
0"
#1571132
0F
#1574337
1G
#1575000
1"
#1576132
1F
#1580000
0"
#1581132
0F
#1584337
0G
#1585000
1"
#1586132
1F
#1587452
1H
#1590000
0"
#1591132
0F
#1594337
1G
#1595000
1"
#1596132
1F
#1600000
b11 #
0"
#1601132
0F
1Y!
#1602635
0J
#1604337
0G
#1605000
1"
#1605196
0\
#1605554
1*!
#1605560
1y
#1606132
1F
#1606234
1$!
#1606295
1g
#1606563
1x
#1606954
1b
#1607452
0H
#1607911
1e
#1607913
1d
#1608124
0?
#1608338
1p
#1608339
1s
#1608346
1}
10!
#1608440
1z
#1610000
0"
#1610354
1{
#1610428
19
#1610839
1:
#1610847
1;
#1610903
1u
#1611132
0F
#1614337
1G
#1614699
1/
#1615000
1"
#1615083
10
#1616132
1F
#1620000
0"
#1621132
0F
#1624337
0G
#1625000
1"
#1626132
1F
#1627452
1H
#1630000
0"
#1631132
0F
#1634337
1G
#1635000
1"
#1636132
1F
#1640000
0"
#1641132
0F
#1644337
0G
#1645000
1"
#1646132
1F
#1647452
0H
#1650000
0"
#1651132
0F
#1654337
1G
#1655000
1"
#1656132
1F
#1660000
0"
#1661132
0F
#1664337
0G
#1665000
1"
#1666132
1F
#1667452
1H
#1670000
0"
#1671132
0F
#1674337
1G
#1675000
1"
#1676132
1F
#1680000
0"
#1681132
0F
#1684337
0G
#1685000
1"
#1686132
1F
#1687452
0H
#1690000
0"
#1691132
0F
#1694337
1G
#1695000
1"
#1696132
1F
#1700000
0"
#1701132
0F
#1704337
0G
#1705000
1"
#1706132
1F
#1707452
1H
#1710000
0"
#1711132
0F
#1714337
1G
#1715000
1"
#1716132
1F
#1720000
0"
#1721132
0F
#1724337
0G
#1725000
1"
#1726132
1F
#1727452
0H
#1730000
0"
#1731132
0F
#1734337
1G
#1735000
1"
#1736132
1F
#1740000
0"
#1741132
0F
#1744337
0G
#1745000
1"
#1746132
1F
#1747452
1H
#1750000
0"
#1751132
0F
#1754337
1G
#1755000
1"
#1756132
1F
#1760000
0"
#1761132
0F
#1764337
0G
#1765000
1"
#1766132
1F
#1767452
0H
#1770000
0"
#1771132
0F
#1774337
1G
#1775000
1"
#1776132
1F
#1780000
0"
#1781132
0F
#1784337
0G
#1785000
1"
#1786132
1F
#1787452
1H
#1790000
0"
#1791132
0F
#1794337
1G
#1795000
1"
#1796132
1F
#1800000
0!
0"
#1801132
0F
#1801163
0;!
#1804122
x@!
#1804337
0G
#1805000
1"
#1806132
1F
#1807452
0H
#1810000
0"
#1811132
0F
#1814337
1G
#1815000
1"
#1816132
1F
#1820000
0"
#1821132
0F
#1824337
0G
#1825000
1"
#1826132
1F
#1827452
1H
#1830000
0"
#1831132
0F
#1834337
1G
#1835000
1"
#1836132
1F
#1840000
0"
#1841132
0F
#1844337
0G
#1845000
1"
#1846132
1F
#1847452
0H
#1850000
0"
#1851132
0F
#1854337
1G
#1855000
1"
#1856132
1F
#1860000
0"
#1861132
0F
#1864337
0G
#1865000
1"
#1866132
1F
#1867452
1H
#1870000
0"
#1871132
0F
#1874337
1G
#1875000
1"
#1876132
1F
#1880000
0"
#1881132
0F
#1884337
0G
#1885000
1"
#1886132
1F
