simulation/qsim/batalha_naval.msim.vcd
$comment
	File created using the following command:
		vcd file batalha_naval.msim.vcd -direction
$end
$date
	Wed Dec 06 11:16:18 2023
$end
$version
	ModelSim Version 2020.1
$end
$timescale
	1ps
$end

$scope module batalha_naval_vlg_vec_tst $end
$var reg 1 ! confirmAttack $end
$var reg 1 " cpld_clk $end
$var reg 2 # game_state_code [1:0] $end
$var reg 1 $ nextMap $end
$var reg 3 % x_coord_code [2:0] $end
$var reg 3 & y_coord_code [2:0] $end
$var wire 1 ' display_colune_activator [3] $end
$var wire 1 ( display_colune_activator [2] $end
$var wire 1 ) display_colune_activator [1] $end
$var wire 1 * display_colune_activator [0] $end
$var wire 1 + display_colune_data [6] $end
$var wire 1 , display_colune_data [5] $end
$var wire 1 - display_colune_data [4] $end
$var wire 1 . display_colune_data [3] $end
$var wire 1 / display_colune_data [2] $end
$var wire 1 0 display_colune_data [1] $end
$var wire 1 1 display_colune_data [0] $end
$var wire 1 2 ledRgb [1] $end
$var wire 1 3 ledRgb [0] $end
$var wire 1 4 matriz_colune_activator [4] $end
$var wire 1 5 matriz_colune_activator [3] $end
$var wire 1 6 matriz_colune_activator [2] $end
$var wire 1 7 matriz_colune_activator [1] $end
$var wire 1 8 matriz_colune_activator [0] $end
$var wire 1 9 matriz_colune_data [6] $end
$var wire 1 : matriz_colune_data [5] $end
$var wire 1 ; matriz_colune_data [4] $end
$var wire 1 < matriz_colune_data [3] $end
$var wire 1 = matriz_colune_data [2] $end
$var wire 1 > matriz_colune_data [1] $end
$var wire 1 ? matriz_colune_data [0] $end

$scope module i1 $end
$var wire 1 @ gnd $end
$var wire 1 A vcc $end
$var wire 1 B unknown $end
$var tri1 1 C devclrn $end
$var tri1 1 D devpor $end
$var tri1 1 E devoe $end
$var wire 1 F game_state_decoder_1|and1~combout $end
$var wire 1 G game_state_decoder_1|or0~0_combout $end
$var wire 1 H cpld_clk~combout $end
$var wire 1 I freq_div_1|t_flipflop_0|out~regout $end
$var wire 1 J freq_div_1|t_flipflop_1|out~regout $end
$var wire 1 K freq_div_1|t_flipflop_2|out~regout $end
$var wire 1 L matriz_displayer|counter3bit_1|t_flipflop_1|out~regout $end
$var wire 1 M matriz_displayer|counter3bit_1|t_flipflop_2|out~regout $end
$var wire 1 N matriz_displayer|andLoopResetEnable~combout $end
$var wire 1 O matriz_displayer|counter3bit_1|t_flipflop_0|out~regout $end
$var wire 1 P matriz_displayer|counter3bit_1|andLoopStart_1~0_combout $end
$var wire 1 Q nextMap~combout $end
$var wire 1 R debouncerNextMap|or0~combout $end
$var wire 1 S debouncerNextMap|t_flipflop_1|out~regout $end
$var wire 1 T debouncerNextMap|t_flipflop_2|out~regout $end
$var wire 1 U debouncerNextMap|t_flipflop_3|out~regout $end
$var wire 1 V debouncerNextMap|t_flipflop_4|out~regout $end
$var wire 1 W debouncerNextMap|t_flipflop_5|out~regout $end
$var wire 1 X debouncerNextMap|and0~0_combout $end
$var wire 1 Y debouncerNextMap|and0~combout $end
$var wire 1 Z counterMapCode|t_flipflop_0|out~regout $end
$var wire 1 [ map_decoder_1|orEnable[0]~combout $end
$var wire 1 \ attack_round_1|selected_map_register[0]|out~regout $end
$var wire 1 ] attack_round_1|xCoordDemuxHitsMap[0]|demux1x4_2|and2~0_combout $end
$var wire 1 ^ confirmAttack~combout $end
$var wire 1 _ attack_round_1|xCoordDemuxHitsMap[0]|demux1x4_2|and2~1_combout $end
$var wire 1 ` attack_round_1|xCoordDemuxHitsMap[0]|demux1x4_2|and2~combout $end
$var wire 1 a attack_round_1|hits_map_register[0]|out~regout $end
$var wire 1 b attack_round_1|xCoordDemuxHitsMap[0]|demux1x4_2|and2~3_combout $end
$var wire 1 c attack_round_1|xCoordDemuxHitsMap[0]|demux1x4_1|and4~2_combout $end
$var wire 1 d attack_round_1|xCoordDemuxHitsMap[0]|demux1x4_1|and2~combout $end
$var wire 1 e attack_round_1|hits_map_register[28]|out~regout $end
$var wire 1 f matriz_displayer|mux8x1_1[0]|or1~0_combout $end
$var wire 1 g matriz_displayer|mux8x1_1[0]|or1~1_combout $end
$var wire 1 h segment_display|mux8x1_1[3]|mux4x1_1|andEnable~4_combout $end
$var wire 1 i attack_round_1|andRed~2_combout $end
$var wire 1 j attack_round_1|xCoordDemuxHitsMap[0]|demux1x4_2|and1~combout $end
$var wire 1 k attack_round_1|hits_map_register[7]|out~regout $end
$var wire 1 l segment_display|mux8x1_1[2]|mux4x1_1|or1~2_combout $end
$var wire 1 m attack_round_1|xCoordDemuxHitsMap[0]|demux1x4_1|and3~combout $end
$var wire 1 n attack_round_1|hits_map_register[21]|out~regout $end
$var wire 1 o matriz_displayer|mux8x1_1[0]|or1~2_combout $end
$var wire 1 p matriz_displayer|mux8x1_1[0]|or1~3_combout $end
$var wire 1 q attack_round_1|xCoordDemuxHitsMap[0]|demux1x4_1|and4~combout $end
$var wire 1 r attack_round_1|hits_map_register[14]|out~regout $end
$var wire 1 s attack_round_1|selected_map_register[14]|out~regout $end
$var wire 1 t imageSelect_1|muxMaps[31]|or0~0_combout $end
$var wire 1 u matriz_displayer|mux8x1_1[0]|mux4x1_1|or1~0_combout $end
$var wire 1 v matriz_displayer|mux8x1_1[3]|or1~12_combout $end
$var wire 1 w matriz_displayer|mux8x1_1[0]|or1~4_combout $end
$var wire 1 x matriz_displayer|mux8x1_1[0]|or1~5_combout $end
$var wire 1 y attack_round_1|xCoordDemuxHitsMap[1]|demux1x4_2|and2~0_combout $end
$var wire 1 z attack_round_1|xCoordDemuxHitsMap[1]|demux1x4_1|and2~combout $end
$var wire 1 { attack_round_1|hits_map_register[29]|out~regout $end
$var wire 1 | matriz_displayer|mux8x1_1[1]|or1~2_combout $end
$var wire 1 } matriz_displayer|mux8x1_1[1]|or1~3_combout $end
$var wire 1 ~ attack_round_1|selected_map_register[12]|out~regout $end
$var wire 1 !! attack_round_1|xCoordDemuxHitsMap[1]|demux1x4_2|and1~0_combout $end
$var wire 1 "! attack_round_1|xCoordDemuxHitsMap[1]|demux1x4_2|and1~combout $end
$var wire 1 #! attack_round_1|hits_map_register[8]|out~regout $end
$var wire 1 $! attack_round_1|xCoordDemuxHitsMap[1]|demux1x4_1|and3~combout $end
$var wire 1 %! attack_round_1|hits_map_register[22]|out~regout $end
$var wire 1 &! matriz_displayer|mux8x1_1[1]|or1~4_combout $end
$var wire 1 '! matriz_displayer|mux8x1_1[1]|or1~5_combout $end
$var wire 1 (! segment_display|mux8x1_1[2]|mux4x1_1|or1~4_combout $end
$var wire 1 )! attack_round_1|xCoordDemuxHitsMap[1]|demux1x4_1|and4~combout $end
$var wire 1 *! attack_round_1|hits_map_register[15]|out~regout $end
$var wire 1 +! matriz_displayer|mux8x1_1[1]|or1~6_combout $end
$var wire 1 ,! attack_round_1|xCoordDemuxHitsMap[1]|demux1x4_2|and2~combout $end
$var wire 1 -! attack_round_1|hits_map_register[1]|out~regout $end
$var wire 1 .! matriz_displayer|mux8x1_1[1]|or1~9_combout $end
$var wire 1 /! matriz_displayer|mux8x1_1[1]|or1~7_combout $end
$var wire 1 0! matriz_displayer|mux8x1_1[1]|or1~8_combout $end
$var wire 1 1! matriz_displayer|mux8x1_1[2]|or1~0_combout $end
$var wire 1 2! attack_round_1|xCoordDemuxHitsMap[2]|demux1x4_1|and2~combout $end
$var wire 1 3! attack_round_1|hits_map_register[30]|out~regout $end
$var wire 1 4! matriz_displayer|mux8x1_1[2]|or1~1_combout $end
$var wire 1 5! attack_round_1|xCoordDemuxHitsMap[2]|demux1x4_1|and3~combout $end
$var wire 1 6! attack_round_1|hits_map_register[23]|out~regout $end
$var wire 1 7! attack_round_1|xCoordDemuxHitsMap[2]|demux1x4_2|and1~combout $end
$var wire 1 8! attack_round_1|hits_map_register[9]|out~regout $end
$var wire 1 9! matriz_displayer|mux8x1_1[2]|mux4x1_1|or1~0_combout $end
$var wire 1 :! matriz_displayer|mux8x1_1[5]|mux4x1_1|or1~0_combout $end
$var wire 1 ;! matriz_displayer|mux8x1_1[4]|or1~4_combout $end
$var wire 1 <! matriz_displayer|mux8x1_1[2]|mux4x1_1|or1~1_combout $end
$var wire 1 =! attack_round_1|xCoordDemuxHitsMap[2]|demux1x4_1|and4~combout $end
$var wire 1 >! attack_round_1|hits_map_register[16]|out~regout $end
$var wire 1 ?! matriz_displayer|mux8x1_1[2]|mux4x1_1|or1~2_combout $end
$var wire 1 @! matriz_displayer|mux8x1_1[3]|or1~6_combout $end
$var wire 1 A! attack_round_1|xCoordDemuxHitsMap[2]|demux1x4_2|and2~combout $end
$var wire 1 B! attack_round_1|hits_map_register[2]|out~regout $end
$var wire 1 C! matriz_displayer|mux8x1_1[2]|mux4x1_1|or1~3_combout $end
$var wire 1 D! matriz_displayer|mux8x1_1[2]|mux4x1_1|or1~4_combout $end
$var wire 1 E! matriz_displayer|mux8x1_1[2]|or1~2_combout $end
$var wire 1 F! attack_round_1|xCoordDemuxHitsMap[4]|demux1x4_2|and2~0_combout $end
$var wire 1 G! attack_round_1|xCoordDemuxHitsMap[3]|demux1x4_1|and2~combout $end
$var wire 1 H! attack_round_1|hits_map_register[31]|out~regout $end
$var wire 1 I! matriz_displayer|mux8x1_1[3]|or1~13_combout $end
$var wire 1 J! attack_round_1|xCoordDemuxHitsMap[3]|demux1x4_2|and1~0_combout $end
$var wire 1 K! attack_round_1|xCoordDemuxHitsMap[3]|demux1x4_2|and1~combout $end
$var wire 1 L! attack_round_1|hits_map_register[10]|out~regout $end
$var wire 1 M! attack_round_1|xCoordDemuxHitsMap[3]|demux1x4_1|and3~combout $end
$var wire 1 N! attack_round_1|hits_map_register[24]|out~regout $end
$var wire 1 O! matriz_displayer|mux8x1_1[3]|or1~7_combout $end
$var wire 1 P! attack_round_1|xCoordDemuxHitsMap[3]|demux1x4_2|and2~combout $end
$var wire 1 Q! attack_round_1|hits_map_register[3]|out~regout $end
$var wire 1 R! matriz_displayer|mux8x1_1[3]|or1~8_combout $end
$var wire 1 S! attack_round_1|xCoordDemuxHitsMap[3]|demux1x4_1|and4~combout $end
$var wire 1 T! attack_round_1|hits_map_register[17]|out~regout $end
$var wire 1 U! matriz_displayer|mux8x1_1[3]|or1~9_combout $end
$var wire 1 V! matriz_displayer|mux8x1_1[3]|or1~10_combout $end
$var wire 1 W! matriz_displayer|mux8x1_1[3]|or1~11_combout $end
$var wire 1 X! attack_round_1|xCoordDemuxHitsMap[4]|demux1x4_2|and2~combout $end
$var wire 1 Y! attack_round_1|hits_map_register[4]|out~regout $end
$var wire 1 Z! attack_round_1|xCoordDemuxHitsMap[4]|demux1x4_1|and2~combout $end
$var wire 1 [! attack_round_1|hits_map_register[32]|out~regout $end
$var wire 1 \! matriz_displayer|mux8x1_1[4]|or1~5_combout $end
$var wire 1 ]! matriz_displayer|mux8x1_1[4]|or1~6_combout $end
$var wire 1 ^! attack_round_1|xCoordDemuxHitsMap[4]|demux1x4_2|and1~combout $end
$var wire 1 _! attack_round_1|hits_map_register[11]|out~regout $end
$var wire 1 `! attack_round_1|xCoordDemuxHitsMap[4]|demux1x4_1|and3~combout $end
$var wire 1 a! attack_round_1|hits_map_register[25]|out~regout $end
$var wire 1 b! matriz_displayer|mux8x1_1[4]|or1~7_combout $end
$var wire 1 c! matriz_displayer|mux8x1_1[4]|or1~10_combout $end
$var wire 1 d! attack_round_1|xCoordDemuxHitsMap[4]|demux1x4_1|and4~combout $end
$var wire 1 e! attack_round_1|hits_map_register[18]|out~regout $end
$var wire 1 f! matriz_displayer|mux8x1_1[4]|or1~8_combout $end
$var wire 1 g! matriz_displayer|mux8x1_1[4]|or1~9_combout $end
$var wire 1 h! attack_round_1|xCoordDemuxHitsMap[5]|demux1x4_2|and1~combout $end
$var wire 1 i! attack_round_1|hits_map_register[12]|out~regout $end
$var wire 1 j! attack_round_1|xCoordDemuxHitsMap[5]|demux1x4_1|and3~combout $end
$var wire 1 k! attack_round_1|hits_map_register[26]|out~regout $end
$var wire 1 l! matriz_displayer|mux8x1_1[5]|mux4x1_1|or1~1_combout $end
$var wire 1 m! attack_round_1|xCoordDemuxHitsMap[5]|demux1x4_2|and2~combout $end
$var wire 1 n! attack_round_1|hits_map_register[5]|out~regout $end
$var wire 1 o! matriz_displayer|mux8x1_1[5]|mux4x1_1|or1~2_combout $end
$var wire 1 p! matriz_displayer|mux8x1_1[5]|mux4x1_1|or1~3_combout $end
$var wire 1 q! matriz_displayer|mux8x1_1[5]|mux4x1_1|or1~4_combout $end
$var wire 1 r! attack_round_1|xCoordDemuxHitsMap[5]|demux1x4_1|and4~combout $end
$var wire 1 s! attack_round_1|hits_map_register[19]|out~regout $end
$var wire 1 t! matriz_displayer|mux8x1_1[5]|mux4x1_1|or1~5_combout $end
$var wire 1 u! matriz_displayer|mux8x1_1[5]|or1~0_combout $end
$var wire 1 v! attack_round_1|xCoordDemuxHitsMap[5]|demux1x4_1|and2~combout $end
$var wire 1 w! attack_round_1|hits_map_register[33]|out~regout $end
$var wire 1 x! matriz_displayer|mux8x1_1[5]|or1~1_combout $end
$var wire 1 y! matriz_displayer|mux8x1_1[5]|or1~2_combout $end
$var wire 1 z! attack_round_1|xCoordDemuxHitsMap[6]|demux1x4_2|and2~0_combout $end
$var wire 1 {! attack_round_1|xCoordDemuxHitsMap[6]|demux1x4_1|and3~combout $end
$var wire 1 |! attack_round_1|hits_map_register[27]|out~regout $end
$var wire 1 }! matriz_displayer|mux8x1_1[6]|mux4x1_1|or1~0_combout $end
$var wire 1 ~! attack_round_1|xCoordDemuxHitsMap[6]|demux1x4_2|and1~combout $end
$var wire 1 !" attack_round_1|hits_map_register[13]|out~regout $end
$var wire 1 "" matriz_displayer|mux8x1_1[6]|mux4x1_1|or1~1_combout $end
$var wire 1 #" matriz_displayer|mux8x1_1[6]|mux4x1_1|or1~2_combout $end
$var wire 1 $" attack_round_1|xCoordDemuxHitsMap[6]|demux1x4_2|and2~combout $end
$var wire 1 %" attack_round_1|hits_map_register[6]|out~regout $end
$var wire 1 &" attack_round_1|xCoordDemuxHitsMap[6]|demux1x4_1|and4~combout $end
$var wire 1 '" attack_round_1|hits_map_register[20]|out~regout $end
$var wire 1 (" matriz_displayer|mux8x1_1[6]|mux4x1_1|or1~3_combout $end
$var wire 1 )" matriz_displayer|mux8x1_1[6]|or1~0_combout $end
$var wire 1 *" attack_round_1|xCoordDemuxHitsMap[6]|demux1x4_1|and2~combout $end
$var wire 1 +" attack_round_1|hits_map_register[34]|out~regout $end
$var wire 1 ," matriz_displayer|mux8x1_1[6]|or1~1_combout $end
$var wire 1 -" matriz_displayer|mux8x1_1[6]|or1~2_combout $end
$var wire 1 ." segment_display|andLoopResetEnable~combout $end
$var wire 1 /" segment_display|counter3bit_1|t_flipflop_0|out~regout $end
$var wire 1 0" segment_display|counter3bit_1|t_flipflop_1|out~regout $end
$var wire 1 1" segment_display|counter3bit_1|t_flipflop_2|out~regout $end
$var wire 1 2" segment_display|mux8x1_1[6]|mux4x1_1|andEnable~0_combout $end
$var wire 1 3" segment_display|mux8x1_1[0]|mux4x1_1|andEnable~0_combout $end
$var wire 1 4" segment_display|mux8x1_1[0]|mux4x1_1|andEnable~1_combout $end
$var wire 1 5" segment_display|mux8x1_1[0]|mux4x1_1|andEnable~2_combout $end
$var wire 1 6" segment_display|mux8x1_1[0]|mux4x1_1|andEnable~3_combout $end
$var wire 1 7" segment_display|mux8x1_1[0]|mux4x1_1|andEnable~4_combout $end
$var wire 1 8" segment_display|mux8x1_1[1]|mux4x1_1|andEnable~0_combout $end
$var wire 1 9" segment_display|mux8x1_1[1]|mux4x1_1|andEnable~1_combout $end
$var wire 1 :" segment_display|mux8x1_1[1]|mux4x1_1|andEnable~2_combout $end
$var wire 1 ;" segment_display|mux8x1_1[1]|mux4x1_1|andEnable~3_combout $end
$var wire 1 <" segment_display|mux8x1_1[2]|mux4x1_1|or1~0_combout $end
$var wire 1 =" segment_display|mux8x1_1[2]|mux4x1_1|or1~1_combout $end
$var wire 1 >" segment_display|mux8x1_1[2]|mux4x1_1|or1~3_combout $end
$var wire 1 ?" segment_display|mux8x1_1[2]|mux4x1_1|andEnable~0_combout $end
$var wire 1 @" segment_display|mux8x1_1[3]|mux4x1_1|andEnable~0_combout $end
$var wire 1 A" segment_display|mux8x1_1[3]|mux4x1_1|andEnable~1_combout $end
$var wire 1 B" segment_display|mux8x1_1[3]|mux4x1_1|andEnable~2_combout $end
$var wire 1 C" segment_display|mux8x1_1[3]|mux4x1_1|andEnable~3_combout $end
$var wire 1 D" segment_display|mux8x1_1[4]|mux4x1_1|or1~0_combout $end
$var wire 1 E" segment_display|mux8x1_1[4]|mux4x1_1|or1~1_combout $end
$var wire 1 F" segment_display|mux8x1_1[4]|mux4x1_1|or1~2_combout $end
$var wire 1 G" segment_display|mux8x1_1[4]|mux4x1_1|or1~3_combout $end
$var wire 1 H" segment_display|mux8x1_1[4]|mux4x1_1|andEnable~0_combout $end
$var wire 1 I" segment_display|mux8x1_1[5]|mux4x1_1|andEnable~0_combout $end
$var wire 1 J" segment_display|mux8x1_1[5]|mux4x1_1|andEnable~1_combout $end
$var wire 1 K" segment_display|mux8x1_1[5]|mux4x1_1|andEnable~2_combout $end
$var wire 1 L" segment_display|mux8x1_1[5]|mux4x1_1|andEnable~3_combout $end
$var wire 1 M" segment_display|mux8x1_1[5]|mux4x1_1|andEnable~4_combout $end
$var wire 1 N" segment_display|mux8x1_1[6]|mux4x1_1|andEnable~1_combout $end
$var wire 1 O" segment_display|mux8x1_1[6]|mux4x1_1|andEnable~2_combout $end
$var wire 1 P" segment_display|mux8x1_1[6]|mux4x1_1|andEnable~3_combout $end
$var wire 1 Q" segment_display|mux8x1_1[6]|mux4x1_1|andEnable~4_combout $end
$var wire 1 R" segment_display|mux8x1_1[6]|mux4x1_1|andEnable~5_combout $end
$var wire 1 S" matriz_displayer|register8bitSIPO_1|d_flipflop_0|out~regout $end
$var wire 1 T" matriz_displayer|register8bitSIPO_1|d_flipflop_1|out~regout $end
$var wire 1 U" matriz_displayer|register8bitSIPO_1|d_flipflop_2|out~regout $end
$var wire 1 V" matriz_displayer|register8bitSIPO_1|d_flipflop_3|out~regout $end
$var wire 1 W" matriz_displayer|register8bitSIPO_1|d_flipflop_4|out~regout $end
$var wire 1 X" segment_display|register8bitSIPO_1|d_flipflop_0|out~regout $end
$var wire 1 Y" segment_display|register8bitSIPO_1|d_flipflop_1|out~regout $end
$var wire 1 Z" segment_display|register8bitSIPO_1|d_flipflop_2|out~regout $end
$var wire 1 [" segment_display|register8bitSIPO_1|d_flipflop_3|out~regout $end
$var wire 1 \" attack_round_1|yCoordMuxSelectedMap|or1~0_combout $end
$var wire 1 ]" attack_round_1|yCoordMuxSelectedMap|or1~1_combout $end
$var wire 1 ^" attack_round_1|yCoordMuxSelectedMap|or1~2_combout $end
$var wire 1 _" attack_round_1|yCoordMuxSelectedMap|or1~3_combout $end
$var wire 1 `" attack_round_1|yCoordMuxSelectedMap|or1~4_combout $end
$var wire 1 a" attack_round_1|yCoordMuxSelectedMap|or1~5_combout $end
$var wire 1 b" attack_round_1|yCoordMuxSelectedMap|or1~6_combout $end
$var wire 1 c" attack_round_1|yCoordMuxSelectedMap|or1~7_combout $end
$var wire 1 d" attack_round_1|yCoordMuxSelectedMap|or1~8_combout $end
$var wire 1 e" attack_round_1|yCoordMuxSelectedMap|or1~9_combout $end
$var wire 1 f" attack_round_1|yCoordMuxSelectedMap|or1~10_combout $end
$var wire 1 g" attack_round_1|yCoordMuxSelectedMap|or1~11_combout $end
$var wire 1 h" attack_round_1|yCoordMuxSelectedMap|or1~12_combout $end
$var wire 1 i" attack_round_1|yCoordMuxSelectedMap|or1~13_combout $end
$var wire 1 j" attack_round_1|yCoordMuxSelectedMap|or1~14_combout $end
$var wire 1 k" attack_round_1|yCoordMuxSelectedMap|or1~15_combout $end
$var wire 1 l" attack_round_1|andGreen~combout $end
$var wire 1 m" attack_round_1|andRed~3_combout $end
$var wire 1 n" y_coord_code~combout [2] $end
$var wire 1 o" y_coord_code~combout [1] $end
$var wire 1 p" y_coord_code~combout [0] $end
$var wire 1 q" game_state_code~combout [1] $end
$var wire 1 r" game_state_code~combout [0] $end
$var wire 1 s" x_coord_code~combout [2] $end
$var wire 1 t" x_coord_code~combout [1] $end
$var wire 1 u" x_coord_code~combout [0] $end
$upscope $end
$upscope $end
$enddefinitions $end
#0
$dumpvars
0!
0"
b11 #
1$
b1 %
b1 &
0*
0)
0(
0'
11
10
1/
1.
1-
1,
1+
13
02
08
07
06
05
04
0?
0>
0=
0<
1;
1:
19
0@
1A
xB
1C
1D
1E
0F
0G
0H
0I
0J
0K
0L
0M
0N
0O
1P
1Q
0R
0S
0T
0U
0V
0W
0X
0Y
0Z
0[
0\
1]
0^
0_
0`
0a
0b
0c
0d
0e
1f
0g
0h
0i
0j
0k
0l
0m
0n
0o
0p
0q
0r
0s
0t
0u
1v
0w
0x
0y
0z
0{
0|
0}
0~
0!!
0"!
0#!
0$!
0%!
1&!
1'!
0(!
0)!
0*!
0+!
0,!
0-!
0.!
0/!
00!
01!
02!
03!
04!
05!
06!
07!
08!
19!
0:!
1;!
0<!
0=!
0>!
0?!
0@!
0A!
0B!
0C!
0D!
0E!
0F!
0G!
0H!
0I!
0J!
0K!
0L!
0M!
0N!
0O!
0P!
0Q!
1R!
0S!
0T!
0U!
0V!
0W!
0X!
0Y!
0Z!
0[!
1\!
1]!
0^!
0_!
0`!
0a!
0b!
0c!
0d!
0e!
1f!
1g!
0h!
0i!
0j!
0k!
1l!
0m!
0n!
1o!
1p!
0q!
0r!
0s!
0t!
1u!
0v!
0w!
0x!
1y!
0z!
0{!
0|!
1}!
0~!
0!"
1""
1#"
0$"
0%"
0&"
0'"
1("
1)"
0*"
0+"
0,"
1-"
0."
0/"
00"
01"
12"
03"
04"
15"
16"
17"
08"
19"
0:"
1;"
0<"
0="
1>"
1?"
0@"
1A"
1B"
1C"
1D"
1E"
0F"
0G"
1H"
1I"
0J"
1K"
1L"
1M"
1N"
1O"
1P"
1Q"
1R"
0S"
0T"
0U"
0V"
0W"
0X"
0Y"
0Z"
0["
1\"
0]"
0^"
0_"
1`"
1a"
0b"
0c"
1d"
0e"
0f"
0g"
0h"
0i"
0j"
0k"
0l"
0m"
1p"
0o"
0n"
1r"
1q"
1u"
0t"
0s"
$end
#5000
1"
1H
#10000
0"
0H
1I
#15000
1"
1H
#20000
0"
0H
0I
1J
#25000
1"
1H
#30000
0"
0H
1I
#35000
1"
1H
#40000
0"
0H
0I
0J
1K
1X"
1S"
1*
18
#45000
1"
1H
#50000
0"
0H
1I
#55000
1"
1H
#60000
0"
0H
0I
1J
#65000
1"
1H
#70000
0"
0H
1I
#75000
1"
1H
#80000
0"
0H
0I
0J
0K
1/"
1O
0O"
1J"
1G"
0E"
1@"
14"
0("
1c!
1b!
1O!
1/!
0v
1o
0P
1V!
10!
1w
0p!
0]!
1W!
1x
1>
1<
1?
#85000
1"
1H
#90000
0"
0H
1I
#95000
1"
1H
#100000
0"
0H
0I
1J
#105000
1"
1H
#110000
0"
0H
1I
#115000
1"
1H
#120000
0"
0H
0I
0J
1K
1Y"
0X"
1T"
0S"
1)
0*
17
08
#125000
1"
1H
#130000
0"
0H
1I
#135000
1"
1H
#140000
0"
0H
0I
1J
#145000
1"
1H
#150000
0"
0H
1I
#155000
1"
1H
#160000
0"
0H
0I
0J
0K
0/"
0O
1O"
0J"
0G"
1E"
0@"
04"
1("
0b!
0O!
0/!
1v
0o
1P
0c!
0V!
00!
0w
1p!
1]!
0W!
0x
0>
0<
0?
1L
10"
0""
1c!
1U!
1?!
1<!
1+!
0v
1p
0P
0A"
0>"
1<"
1:"
09"
05"
1V!
1D!
1/!
1w
0p!
0]!
1W!
1E!
10!
1x
1<
1=
1>
1?
#165000
1"
1H
#170000
0"
0H
1I
#175000
1"
1H
#180000
0"
0H
0I
1J
#185000
1"
1H
#190000
0"
0H
1I
#195000
1"
1H
#200000
0"
0H
0I
0J
1K
1Z"
0Y"
1U"
0T"
1(
0)
16
07
#205000
1"
1H
#210000
0"
0H
1I
#215000
1"
1H
#220000
0"
0H
0I
1J
#225000
1"
1H
#230000
0"
0H
1I
#235000
1"
1H
#240000
0"
0H
0I
0J
0K
1/"
1O
0O"
1J"
0E"
0C"
1@"
0<"
0;"
07"
14"
0("
0#"
1b!
1O!
0p
1o
0R"
0?"
0)"
0.
00
01
0-"
0+
0/
09
#245000
1"
1H
#250000
0"
0H
1I
#255000
1"
1H
#260000
0"
0H
0I
1J
#265000
1"
1H
#270000
0"
0H
1I
#275000
1"
1H
#280000
0"
0H
0I
0J
1K
1["
0Z"
1V"
0U"
1'
0(
15
06
#285000
1"
1H
#290000
0"
0H
1I
#295000
1"
1H
#300000
0"
0H
0I
1J
#305000
1"
1H
#310000
0"
0H
1I
#315000
1"
1H
#320000
0"
0H
0I
0J
0K
0/"
0O
1O"
0J"
1E"
1C"
0@"
1<"
1;"
17"
04"
1("
1#"
0b!
0O!
1p
0o
1R"
1?"
1)"
1.
10
11
1-"
1+
1/
19
0L
00"
1""
0c!
0U!
0?!
0<!
0+!
1v
0p
1P
1A"
1>"
0<"
0:"
19"
15"
0V!
0D!
0/!
0w
1p!
1]!
0W!
0E!
00!
0x
0<
0=
0>
0?
11"
1M
02"
0)"
0u!
11!
0R"
0M"
0H"
0C"
0?"
0;"
07"
0-"
0y!
1I!
14!
1W!
1E!
0+
0,
0-
0.
0/
00
01
09
0:
1<
1=
#325000
1"
1H
#330000
0"
0H
1I
#335000
1"
1H
#340000
0"
0H
0I
1J
#345000
1"
1H
#350000
0"
0H
1I
#355000
1"
1H
#360000
0"
0H
0I
0J
1K
0["
1W"
0V"
0'
14
05
#365000
1"
1H
#370000
0"
0H
1I
#375000
1"
1H
#380000
0"
0H
0I
1J
#385000
1"
1H
#390000
0"
0H
1I
#395000
1"
1H
#400000
0"
0H
0I
0J
0K
1/"
1O
0O"
1J"
1G"
0E"
1@"
14"
1."
0("
1c!
1b!
1O!
01!
1/!
0v
1o
0P
1N
1V!
0I!
04!
1w
0p!
0]!
0W!
0E!
0g!
0<
0=
0;
01"
0/"
0O
0M
12"
0."
1O"
0J"
0G"
1E"
0@"
04"
1("
0b!
0O!
0/!
1v
0o
1P
0N
1)"
1u!
1g!
1W!
10!
1x
1R"
1M"
1H"
1C"
1?"
1;"
17"
0c!
0V!
00!
0w
1p!
1]!
1-"
1y!
1;
1<
1>
1?
0W!
0x
1+
1,
1-
1.
1/
10
11
0>
19
1:
0<
0?
#405000
1"
1H
#410000
0"
0H
1I
#415000
1"
1H
#420000
0"
0H
0I
1J
#425000
1"
1H
#430000
0"
0H
1I
#435000
1"
1H
#440000
0"
0H
0I
0J
1K
1X"
0W"
1S"
1*
04
18
#445000
1"
1H
#450000
0"
0H
1I
#455000
1"
1H
#460000
0"
0H
0I
1J
#465000
1"
1H
#470000
0"
0H
1I
#475000
1"
1H
#480000
0"
0H
0I
0J
0K
1/"
1O
0O"
1J"
1G"
0E"
1@"
14"
0("
1c!
1b!
1O!
1/!
0v
1o
0P
1V!
10!
1w
0p!
0]!
1W!
1x
1>
1<
1?
#485000
1"
1H
#490000
0"
0H
1I
#495000
1"
1H
#500000
0"
0H
0I
1J
#505000
1"
1H
#510000
0"
0H
1I
#515000
1"
1H
#520000
0"
0H
0I
0J
1K
1Y"
0X"
1T"
0S"
1)
0*
17
08
#525000
1"
1H
#530000
0"
0H
1I
#535000
1"
1H
#540000
0"
0H
0I
1J
#545000
1"
1H
#550000
0"
0H
1I
#555000
1"
1H
#560000
0"
0H
0I
0J
0K
0/"
0O
1O"
0J"
0G"
1E"
0@"
04"
1("
0b!
0O!
0/!
1v
0o
1P
0c!
0V!
00!
0w
1p!
1]!
0W!
0x
0>
0<
0?
1L
10"
0""
1c!
1U!
1?!
1<!
1+!
0v
1p
0P
0A"
0>"
1<"
1:"
09"
05"
1V!
1D!
1/!
1w
0p!
0]!
1W!
1E!
10!
1x
1<
1=
1>
1?
#565000
1"
1H
#570000
0"
0H
1I
#575000
1"
1H
#580000
0"
0H
0I
1J
#585000
1"
1H
#590000
0"
0H
1I
#595000
1"
1H
#600000
0"
0H
0I
0J
1K
1Z"
0Y"
1U"
0T"
1(
0)
16
07
#605000
1"
1H
#610000
0"
0H
1I
#615000
1"
1H
#620000
0"
0H
0I
1J
#625000
1"
1H
#630000
0"
0H
1I
#635000
1"
1H
#640000
0"
0H
0I
0J
0K
1/"
1O
0O"
1J"
0E"
0C"
1@"
0<"
0;"
07"
14"
0("
0#"
1b!
1O!
0p
1o
0R"
0?"
0)"
0.
00
01
0-"
0+
0/
09
#645000
1"
1H
#650000
0"
0H
1I
#655000
1"
1H
#660000
0"
0H
0I
1J
#665000
1"
1H
#670000
0"
0H
1I
#675000
1"
1H
#680000
0"
0H
0I
0J
1K
1["
0Z"
1V"
0U"
1'
0(
15
06
#685000
1"
1H
#690000
0"
0H
1I
#695000
1"
1H
#700000
0"
0H
0I
1J
#705000
1"
1H
#710000
0"
0H
1I
#715000
1"
1H
